<svg xmlns="http://www.w3.org/2000/svg" viewBox="0 0 500 178.159">
    <defs>
        <style>.a{fill:#ff0;}.b{fill:#fff;}</style>
    </defs>
    <g transform="translate(-2.55 -0.99)">
        <g transform="translate(341.848 124.993)">
            <rect class="a" width="156.866" height="54.156" rx="27.078"/>
        </g>
        <path d="M995.151,378.706a7.742,7.742,0,0,1-.568,2.917l-.418.209-1.2,1.218-1.177.669-.586.1-.4.3-1.318.336c-.433.127-.65.374-.65.747l.25.863-.373.291-.127.568a1.957,1.957,0,0,1-.168.747.374.374,0,0,1-.374.157l-.691-.123a1.207,1.207,0,0,0,.314.818l-.4.5-.459.374-.4.459-1.363.818-.273.4-.859.25-1.658.986-1.8.777-2.032.609-1.64.168-1.363.291-.564-.041-.041.168h-.687l-.586-.373a.6.6,0,0,0-.25.463h-.527a3.515,3.515,0,0,1-1.382-.2,1.333,1.333,0,0,1-.672-.7l-.232.041-.25-.25h-.168l-.082.441a1.815,1.815,0,0,1-.609-.075,3.463,3.463,0,0,1-.65-.407,9.459,9.459,0,0,1-1.386-1.292,5.834,5.834,0,0,1-.84-1.371,2.131,2.131,0,0,0,.254-.65l-.041-.254-.3-.291-.818-.441-.127-.5.045-.373a.747.747,0,0,0,.437-.093,1.272,1.272,0,0,0,.295-.407l-.314-.373-.3.041c-.25,0-.373-.22-.373-.669a2.483,2.483,0,0,1,.254-1.091l.65-1.363.418-.9.373-.441.441-.713.418-.273.747-.859.747-.336.695-1.068.773-.747.127-.482,1.281-.586.4-.4.336-.332a2.615,2.615,0,0,1-1-.609,1.692,1.692,0,0,1-.273-.945l-.863.168-1.382-1.531.123-.568c0-.209-.153-.4-.459-.564l.459-1.027-.168-.086v-.336a1.583,1.583,0,0,1,.116-.657,2.054,2.054,0,0,1,.452-.557.948.948,0,0,0,.474-.116,1.587,1.587,0,0,0,.336-.474,3.084,3.084,0,0,1,.881-.975,3.246,3.246,0,0,1,1.218-.661l.123-.482.863-.082.523-.5,2.536-.986,1.12-.691,1.445-.041,2.036-.4a1.259,1.259,0,0,1,1.2.9l.609.19.25.945a1.252,1.252,0,0,1,.374.586c0,.239-.194.456-.586.65l-.4-.209-1.494-.373-.568-.209-.523.209-.631-.332-.082.25-.523.127-.777-.213-1.2.374-.045-.146-.6-.127-.374.127-1.229.448-.5.3-.4.127-1.759,1.468a2.492,2.492,0,0,0-.463.25,7.559,7.559,0,0,0-.482,1.513l-.168.459.527.523.459.336.086.441.65.422.564.4,2.917.695.564.209.463-.045,2.413.086,1.068-.4,1.154-.041.9-.209.863.25-.695,1.677-.627.273a5.886,5.886,0,0,0-1.038.374,1.013,1.013,0,0,0-.374.5l-.747-.232-.373-.336-.441-.209-.627.25-.609-.209-.3.209-1.173-.123-1.154.605-.9-.1-.527.19.373.5-.818.123-1.2.747-.859.441-1.628,1.845a1.7,1.7,0,0,1-.818.336,7.8,7.8,0,0,1-.65,1.636l-.336,1.2v.777l-.168.4.209.459.168,1.2.4.691.209.568.459.463.4.65,1.445,1.468c.127.123.28.265.463.418a2.791,2.791,0,0,0,.5.347,2.294,2.294,0,0,0,.5.176l1.277.3,1.494.127.695-.045.082.213.482-.086h1.154l.65-.3.586-.164,2.2-.863.672-.123.146-.4a14.419,14.419,0,0,0,1.834-1.225,5.688,5.688,0,0,0,1.12-1.438l.374-.631.127-.982.146-.777c-.03-.3-.344-.687-.945-1.177l-1.494-1.154a6.379,6.379,0,0,0-.818-.747,2.869,2.869,0,0,0-.859-.314l-1.027-.523-.695-.127-1.12.3-.747.187a.941.941,0,0,0-.568.545l-.463.952-.482.482.228.986v.041c0,.071-.075.183-.228.336a.956.956,0,0,1-.631.232.415.415,0,0,1-.314-.127l-.254-.273-.564-.336a.867.867,0,0,1-.3-.747,1.1,1.1,0,0,1,.336-.9l.945-.818,1.259-1.068,1.4-.527,2.036-.859.859-.168.818.045,1.614.482,1.177.627.082.441.25.568.422.168.187-.4-.187-.336.523.25,1.3.818.945.441a5.509,5.509,0,0,0,2.663-1.173c.418-.254.642-.448.672-.586l.314-1.763a3.521,3.521,0,0,0-.986-1.763,1.5,1.5,0,0,1,.306-.407,1.176,1.176,0,0,1,.407-.2l.691-.25.4.373.168.254.945.4a2,2,0,0,1,.459.818Z"
              transform="translate(-603.146 -227.943)"/>
        <path d="M973.215,394.258H972.5a3.691,3.691,0,0,1-1.46-.217,1.52,1.52,0,0,1-.7-.665l-.191.034-.209-.213-.075.373h-.153a2,2,0,0,1-.676-.086,3.736,3.736,0,0,1-.695-.433,9.49,9.49,0,0,1-1.416-1.322,5.978,5.978,0,0,1-.867-1.416l-.037-.078.041-.082a2.061,2.061,0,0,0,.232-.564l-.03-.164-.232-.232-.866-.467-.157-.616.067-.556h.187c.232,0,.31-.041.325-.056a.777.777,0,0,0,.179-.235l-.161-.179-.194.026h0c-.284,0-.586-.153-.586-.855a2.693,2.693,0,0,1,.269-1.173l1.1-2.3.374-.441.482-.747.4-.261.781-.885.683-.314.691-1.057.747-.7.134-.515,1.33-.613.512-.515a2.185,2.185,0,0,1-.825-.553,1.7,1.7,0,0,1-.291-.837l-.747.146-1.52-1.681.142-.635c0-.131-.131-.258-.374-.374l-.153-.082.444-1-.112-.056v-.452a1.71,1.71,0,0,1,.134-.747,2.24,2.24,0,0,1,.493-.613l.049-.045h.067a.792.792,0,0,0,.374-.078,1.453,1.453,0,0,0,.284-.415,3.283,3.283,0,0,1,.93-1.031,3.555,3.555,0,0,1,1.18-.665l.131-.5.922-.09.542-.5,2.536-.986,1.12-.706,1.494-.041,2.028-.4h.026a1.423,1.423,0,0,1,1.322.938l.62.19.265,1a1.437,1.437,0,0,1,.374.642v.041c0,.314-.232.586-.687.818l-.086.041-.463-.243-1.468-.351-.519-.19-.538.213-.512-.269-.045.138-.672.161-.773-.209-1.322.4-.064-.22-.448-.09-.332.108-1.21.437-.512.3-.374.116-1.767,1.457a2.388,2.388,0,0,0-.4.217,9.434,9.434,0,0,0-.437,1.423l-.131.374.441.441.5.374.086.433.583.373.542.373,2.88.684.549.2.418-.037,2.4.082,1.094-.4,1.154-.041.915-.217,1.12.325-.8,1.938-.7.3a5.57,5.57,0,0,0-1.02.347.888.888,0,0,0-.31.418l-.067.153-.964-.321-.374-.317-.34-.164-.62.25-.583-.2-.273.194-1.188-.127-1.154.609-.915-.108-.254.093.373.549-1.079.164-1.162.713-.84.433-1.569,1.867a1.625,1.625,0,0,1-.8.373,9.358,9.358,0,0,1-.639,1.561l-.317,1.12v.822l-.134.325.19.437.161,1.162.373.661.209.553.459.467.373.635,1.43,1.453c.123.123.276.261.448.407a2.7,2.7,0,0,0,.467.321,2.114,2.114,0,0,0,.463.164l1.277.291,1.494.123.8-.052.075.194.336-.056h1.143l.665-.288.613-.176,2.185-.855.6-.116.131-.374.06-.034a14.108,14.108,0,0,0,1.808-1.21,5.428,5.428,0,0,0,1.083-1.386l.373-.6.12-.949.142-.747c-.026-.146-.179-.459-.87-1.023l-1.494-1.15a5.95,5.95,0,0,0-.807-.747,2.69,2.69,0,0,0-.8-.288h-.041l-1-.512-.624-.116-1.8.474a.747.747,0,0,0-.448.448l-.538.99-.407.411.209.967c0,.127-.086.269-.284.467a1.121,1.121,0,0,1-.747.288.609.609,0,0,1-.444-.183l-.239-.258-.545-.321a1.053,1.053,0,0,1-.374-.893,1.282,1.282,0,0,1,.407-1.049l2.241-1.916,1.4-.523,2.065-.87.881-.172.885.052,1.651.5,1.251.669.1.508.213.478.187.075.071-.153-.433-.769,1.061.508,1.318.829.885.411a5.652,5.652,0,0,0,2.521-1.143c.549-.329.586-.463.59-.467l.314-1.759c0-.194-.168-.665-.945-1.61l-.082-.1.063-.112a1.66,1.66,0,0,1,.344-.456,1.31,1.31,0,0,1,.474-.235l.792-.288.512.486.135.205.937.407a1.923,1.923,0,0,1,.474.773h.624v.187a7.965,7.965,0,0,1-.579,2.988l-.03.064-.452.228-1.214,1.225-1.236.695-.545.1-.426.3-1.322.336c-.433.127-.5.355-.508.527l.28.956-.426.332-.112.5a1.834,1.834,0,0,1-.194.807.583.583,0,0,1-.512.239l-.482-.086a1.034,1.034,0,0,0,.243.471l.1.116-.527.657-.463.355-.415.474-1.33.8-.288.418-.9.265-1.636.971-1.826.788-2.054.616-1.669.172-1.371.3-.437-.034-.037.157h-.893l-.508-.325a.344.344,0,0,0-.09.224Zm-2.659-1.3.064.131a1.158,1.158,0,0,0,.575.613,3.466,3.466,0,0,0,1.307.183h.374a.837.837,0,0,1,.291-.418l.1-.09.657.422h.493l.041-.179.7.052,1.337-.288,1.655-.172,2-.6,1.782-.769,1.681-.993.8-.232.291-.4,1.337-.8.373-.441.471-.373.291-.373a1.368,1.368,0,0,1-.261-.818v-.224l.911.164a.183.183,0,0,0,.168-.078,1.81,1.81,0,0,0,.138-.661l.142-.65.332-.258-.224-.792a.923.923,0,0,1,.784-.911l1.292-.329.4-.3.6-.1,1.12-.642,1.225-1.236.374-.176a7.639,7.639,0,0,0,.523-2.614h-.508l-.045-.123a1.983,1.983,0,0,0-.373-.721l-.967-.407-.187-.28-.3-.284-.583.209a1.057,1.057,0,0,0-.351.168,1,1,0,0,0-.2.25,3.421,3.421,0,0,1,.945,1.778l-.318,1.793c-.041.209-.269.422-.747.717a5.821,5.821,0,0,1-2.76,1.2h-.078l-.945-.441-1.374-.855-.276.586-.654-.258-.3-.68-.067-.351-1.079-.579-1.576-.471-.773-.037-.818.157-2.017.855-1.382.515L974.8,383.21a.926.926,0,0,0-.273.747.7.7,0,0,0,.224.586l.586.355.254.273a.228.228,0,0,0,.176.067.747.747,0,0,0,.508-.187.707.707,0,0,0,.168-.209l-.254-1.072.538-.534.489-.919a1.094,1.094,0,0,1,.687-.639l1.867-.493.784.149,1.008.515a2.917,2.917,0,0,1,.9.336,6.5,6.5,0,0,1,.848.781l1.494,1.12c.657.538.982.949,1.016,1.3v.026l-.149.8-.149,1.046-.373.631a5.878,5.878,0,0,1-1.162,1.494,14.186,14.186,0,0,1-1.8,1.21l-.161.437-.777.146-2.166.848-.6.176-.7.3h-1.154l-.6.108-.09-.224-.56.034-1.535-.127-1.3-.3a2.416,2.416,0,0,1-.545-.194,2.59,2.59,0,0,1-.542-.374c-.183-.153-.34-.3-.474-.429l-1.494-1.494-.374-.631-.489-.515-.209-.564-.411-.747-.161-1.169-.235-.512.187-.437v-.788l.336-1.2a7.238,7.238,0,0,0,.642-1.614l.022-.131.127-.026a1.427,1.427,0,0,0,.721-.284l1.643-1.923.859-.441,1.251-.747.519-.082-.321-.456.8-.288.889.1,1.15-.609,1.161.127.314-.228.635.22.639-.258.56.276.347.306.542.172a1.094,1.094,0,0,1,.373-.441,6.251,6.251,0,0,1,1.079-.374l.538-.232.583-1.416-.612-.183-.855.2-1.158.045-1.076.4-2.45-.086-.478.045-.609-.224-2.958-.713-.564-.4-.713-.456-.082-.448-.392-.254-.631-.627.209-.575c.373-1.438.471-1.52.527-1.576a2.614,2.614,0,0,1,.5-.28l1.8-1.494.373-.12.486-.284,1.677-.6.747.161.022.075,1.064-.317.781.209.373-.09.123-.374.747.4.542-.183.631.235,1.513.374.31.161c.19-.1.374-.25.4-.418a1.143,1.143,0,0,0-.321-.474l-.037-.034-.235-.893-.6-.187-.03-.09a1.079,1.079,0,0,0-1.008-.777l-2.009.4-1.427.041-1.068.669-2.54,1-.542.523-.8.078-.123.463-.108.026a3.047,3.047,0,0,0-1.143.624,2.988,2.988,0,0,0-.829.911,1.777,1.777,0,0,1-.392.542.993.993,0,0,1-.512.146,1.869,1.869,0,0,0-.374.456,1.4,1.4,0,0,0-.1.579v.22l.228.112L969,372.562a.788.788,0,0,1,.407.639v.041l-.1.474,1.247,1.378.967-.187v.213a1.554,1.554,0,0,0,.235.84,2.267,2.267,0,0,0,.93.549l.261.108-.99.971-1.2.549-.116.448-.8.747-.71,1.1-.747.34-.747.863-.373.25-.415.68-.374.441-1.057,2.241a2.309,2.309,0,0,0-.235,1.012q0,.482.19.482l.374-.052.467.53-.06.112a1.43,1.43,0,0,1-.347.471.747.747,0,0,1-.373.123v.168l.1.374.788.433.336.336.052.31a1.531,1.531,0,0,1-.228.687,5.664,5.664,0,0,0,.773,1.247,9.5,9.5,0,0,0,1.359,1.266,3.415,3.415,0,0,0,.6.374,1.264,1.264,0,0,0,.374.056l.086-.437h.4l.235.235Z"
              transform="translate(-602.877 -227.673)"/>
        <path d="M1102.157,382.963a4.15,4.15,0,0,1-.213,1.2l-.859-.041-.291.127.082.564a.833.833,0,0,1,.463.777,2.314,2.314,0,0,1-.168,1.12l-1.12,1.472-.374.627-.818.859-.818.777-.441.232-3.294,2.14-1.632.523a2.533,2.533,0,0,1-.9.25,2.1,2.1,0,0,1-.441-.123,2.9,2.9,0,0,1-1.4.332l-.986-.041h-1.908l-.672-.168-2.495-.168-1.386-.773-.586.123.254.209-.609-.082-.586-.082-1.636-1.2-1.12-.149-1.177-.713c-.489-.347-.747-.594-.747-.747a2.289,2.289,0,0,1,.336-1.038,5.642,5.642,0,0,1,.8-1.12,2.141,2.141,0,0,1,1.322-.8l.314,1.572a1.868,1.868,0,0,1,.568.374,1.537,1.537,0,0,1,.232.586l.482-.086.418.273.373.5,1.408.4,1.427.627,2.872.609a3.551,3.551,0,0,0,.859.463c.194,0,.314-.142.374-.422l.291-.041,2.614.168.818-.418.463.168.773-.168.9-.317a2.1,2.1,0,0,0,1.068-.669l.609-.818.747-.777a4.047,4.047,0,0,0,.336-.986c.545,0,.818-.176.818-.523l-.082-.422-.041-.523.336-.374.65-1.95h.209l-.086-1.24-.418-1.15-.168-.486-.609-.041-1.55-.941-1.89-.747-.418-.463-.609-.355-.441.232-.123.209-2.876-.127-.65-.777-.5.654-.482-.108-1.2-.25a17.513,17.513,0,0,1-1.834-.43,3.735,3.735,0,0,1-1.079-.515l.041-.459-.747-.314-.355.082a4.431,4.431,0,0,1-.975-.893,5.6,5.6,0,0,1-.516-1.289l.168-.041-.418-.482-.063-.672-.082-.691V372.8l.273-.863.25-.482.25-.65.695-.5a1.408,1.408,0,0,0,.482-1.214l.374-.3,2.286-1.718.986-.59,1.613-.818,2.241-.747.523-.168.545-.082,1.3-.149.627-.25,2.118.25.945-.041.586.232,1.05.25c.713.183,1.068.415,1.068.691a.989.989,0,0,1-.041.3,3.356,3.356,0,0,0-.441.168l-.545.482a5.516,5.516,0,0,1-1.677.672l-.441-.254-1.12-.818-.609-.082-1.718-.336-.986.041-1.154.045-2.054,1.068-1.468.747-.986.777-.482.545-.9,1.595-.818.568-.168.5.568.318a1.211,1.211,0,0,0-.082.459,1.987,1.987,0,0,0,.239.691l-.818.422.209.482.441.168.777.127.818.691,1.718.777.463.418,1.468-.127,1.277.127.086.273.523-.086.747-.082a.746.746,0,0,1,.291.041l1.12.254.564.123c.1.657.28.986.545.986l.075-.03a.222.222,0,0,1,.075,0l.941-.609,1.12.086.818-.045a1.924,1.924,0,0,1,1.277.527l1.072.941h.22a1.315,1.315,0,0,0,.22-.034h.041q.291,0,1.468,1.468l.336.422.034.523Z"
              transform="translate(-672.695 -227.598)"/>
        <path d="M1089.7,393.657l-.993-.041h-1.935l-.672-.168-2.54-.187-1.326-.747-.142.034.459.374-1.89-.265-1.636-1.2-1.12-.164-1.177-.713c-.724-.515-.822-.747-.822-.893a2.419,2.419,0,0,1,.374-1.12,5.888,5.888,0,0,1,.822-1.158,2.315,2.315,0,0,1,1.434-.859l.176-.022.329,1.655a1.8,1.8,0,0,1,.545.373,1.29,1.29,0,0,1,.224.5l.374-.067.53.374.318.452,1.341.373,1.434.628,2.913.631a3.793,3.793,0,0,0,.777.433c.03,0,.12,0,.157-.261l.022-.138.448-.064h0l2.57.164.848-.433.486.179.724-.157.878-.31a1.958,1.958,0,0,0,.982-.605l.609-.818.747-.777a4.211,4.211,0,0,0,.306-.919l.034-.142h.146c.631,0,.631-.235.631-.336l-.078-.374-.052-.624.374-.411.683-2.039h.142l-.067-1.012-.538-1.494-.53-.037-1.591-.967-1.9-.747-.429-.471-.493-.291-.3.161-.157.258-3.066-.134-.553-.661-.433.56-1.793-.373a18.158,18.158,0,0,1-1.867-.433,3.938,3.938,0,0,1-1.12-.542l-.09-.063.041-.433-.553-.235-.3.071-.086.019-.067-.052a4.573,4.573,0,0,1-1.02-.937,5.68,5.68,0,0,1-.538-1.337l-.056-.19h.063l-.258-.3-.153-1.416v-.31l.28-.889.265-.512.261-.684.747-.534a1.233,1.233,0,0,0,.407-1.064v-.093l.448-.347L1085,366.6l1-.6,1.628-.822,2.794-.915.575-.09,1.281-.146.65-.258,2.166.258.952-.045.624.243,1.027.243c.519.134,1.21.374,1.21.874a1.055,1.055,0,0,1-.052.355l-.026.086-.09.03c-.276.1-.374.134-.392.146l-.53.471a5.6,5.6,0,0,1-1.752.71l-.075.019-.508-.288-1.091-.8-.56-.078-1.711-.332-2.077.082-2.017,1.049-1.453.728-.971.766-.444.5-.915,1.617-.829.549-.1.3.575.317-.06.153a1.021,1.021,0,0,0-.071.392,1.753,1.753,0,0,0,.194.62l.067.161-.818.418.108.25.351.131.807.131.84.71,1.744.8.4.373,1.386-.12,1.438.138.075.239.373-.06.747-.086a1.046,1.046,0,0,1,.374.052l1.785.4v.127c.071.482.194.781.329.822H1094a.315.315,0,0,1,.075-.019l.956-.616,1.177.09.792-.045h0a2.129,2.129,0,0,1,1.408.571l1.02.9h.134a1.4,1.4,0,0,0,.187-.026h.09c.187,0,.478.12,1.614,1.539l.374.459.093.616.213,2a4.412,4.412,0,0,1-.22,1.251l-.041.138-.964-.049-.12.052.049.336a1.008,1.008,0,0,1,.478.893,2.368,2.368,0,0,1-.2,1.214l-1.12,1.494-.373.642-.818.863-.866.81-.441.232-3.32,2.151-1.636.527a2.614,2.614,0,0,1-.96.258,1.388,1.388,0,0,1-.426-.108A3.077,3.077,0,0,1,1089.7,393.657Zm-2.872-.415h1.867l.994.041a2.7,2.7,0,0,0,1.307-.31l.075-.041.078.026a1.7,1.7,0,0,0,.373.116,2.391,2.391,0,0,0,.825-.235l1.628-.523,3.272-2.125.433-.228.8-.747.8-.837.373-.613,1.12-1.494a2.134,2.134,0,0,0,.131-1,.639.639,0,0,0-.374-.612l-.082-.045-.116-.8.463-.2.747.037a3.885,3.885,0,0,0,.164-.99l-.209-1.965-.078-.508-.3-.374c-1.023-1.277-1.289-1.389-1.33-1.4h0a1.168,1.168,0,0,1-.228.03,1.578,1.578,0,0,1-.183,0h-.123l-1.12-.99a1.752,1.752,0,0,0-1.154-.478l-.811.041-1.072-.078-.937.605h-.052a.205.205,0,0,0-.067.022h-.082c-.489,0-.65-.665-.71-1.016l-1.595-.373a.59.59,0,0,0-.209-.022l-.714.082-.676.108-.1-.31-1.154-.112-1.516.131-.5-.452-1.737-.792-.777-.657-.747-.131-.515-.194-.31-.713.822-.422a1.738,1.738,0,0,1-.157-.605,1.522,1.522,0,0,1,.045-.373l-.568-.314.235-.71.837-.579.9-1.587.486-.545,1.042-.818,1.468-.747,2.129-1.087,2.162-.086,1.74.34.646.09,1.15.844.373.2a5.176,5.176,0,0,0,1.543-.624l.53-.471c.026-.022.041-.037.407-.168a.944.944,0,0,0,0-.153c0-.064-.067-.291-.93-.508l-1.046-.254-.571-.224-.908.041-2.1-.247-.635.247-1.3.146-.538.082-2.738.9-1.591.807-.971.583-2.577,1.942a1.539,1.539,0,0,1-.556,1.277l-.646.471-.232.6-.261.5-.25.8v.183l.138,1.285.579.669-.269.067a4.7,4.7,0,0,0,.43,1.05,3.944,3.944,0,0,0,.773.728h.571v.056l.747.325-.045.489a3.787,3.787,0,0,0,.941.426,18.129,18.129,0,0,0,1.815.426l1.565.332.575-.747.747.889,2.682.12.1-.161.575-.3.747.444.374.43,1.867.717,1.542.934.683.049.639,1.8.1,1.438h-.273l-.646,1.886-.284.317.037.444.078.4c0,.284-.112.695-.852.747a3.971,3.971,0,0,1-.321.9l-.026.034-.747.777-.594.8a2.312,2.312,0,0,1-1.158.747l-.9.314-.852.187-.437-.161-.788.407-2.656-.172-.146.022a.519.519,0,0,1-.512.441c-.09,0-.235-.037-.93-.474l-2.88-.613-1.423-.631-1.445-.407-.374-.527-.329-.213-.583.1-.041-.172a1.353,1.353,0,0,0-.19-.508,1.638,1.638,0,0,0-.5-.31l-.086-.041-.3-1.494a2,2,0,0,0-1.035.7,5.424,5.424,0,0,0-.773,1.091,2.113,2.113,0,0,0-.314.949s.056.153.654.583l1.12.683,1.12.149,1.636,1.2.5.071-.045-.037,1.031-.22,1.412.788,2.454.164Z"
              transform="translate(-672.47 -227.285)"/>
        <path d="M1182.244,370.56l-.336,1.154a1.968,1.968,0,0,1-.441.952,2.614,2.614,0,0,1-1.027.411,4.565,4.565,0,0,0-.5.187l.463.374a2.458,2.458,0,0,1-.672,1.072,2.45,2.45,0,0,0-.777.146,1.633,1.633,0,0,0-.523.463l.374.168-.818.65-1.091.459-.459.374-1.24.291a5.85,5.85,0,0,0-1.12.609l-.747.418-.3-.082-.945.336-1.759.441-1.12.374-1.027-.086-.609.317-.609-.045-.418.168-.568-.082a3.306,3.306,0,0,0-1.236.25l-1.763.747-.441.168-.082.374.19,2.409-.19.441.314,2.1v.418q-.65.064-.65.482v.078l.527,1.154.168,2.7.082,1.027a.643.643,0,0,1-.441.691l-.672.213-.65.605-.523.045-.986.523a.793.793,0,0,1-.209.086c-.321,0-.482-.19-.482-.568a.692.692,0,0,1,.041-.3l.441-.777-.127-1.236.418-3.4-.291-1.554.374-2.14-.086-.773.374-1.3v-.627h-.314l-.045-.441.086-.373.273-.609-.041-.336.041-.523-.314-.418-.127-2.372.082-.568.045-.941.187-.631-.314-.773v-.045l.082-1.427-.041-.332.374-.213-.086-1.173h-.568a5.2,5.2,0,0,1-.127-.986,11.427,11.427,0,0,1,.127-1.322s.026,0,.041-.041a.3.3,0,0,0-.063-.2.187.187,0,0,0-.146-.075l-.65-.209-.336-.3-.4-.041.041-.777.373-.123,1.677-.65,1.12-.441,4.194.228.9-.164a4.321,4.321,0,0,1,1.12-.108h.777l1.363.149.945.041.373-.041.747-.041.146.041.336.374h1.886l1.068.418.527-.25,1.322.25.4.4a1.676,1.676,0,0,0,.631.459l1.591.1,1.427.8.777.441a1.546,1.546,0,0,0-.127.291c0,.183.157.374.463.609l.041.568Zm-3.126.418-.336-.65-.146-.5-1.494-1.494a3.48,3.48,0,0,0-.407-.493,1.656,1.656,0,0,0-.374-.2l-.254.209a13.208,13.208,0,0,0-4.613-1.154h-2.017l-1.763-.291-1.2.418-2.7-.086a1.494,1.494,0,0,0-.893.452,1.311,1.311,0,0,0-.3.893l-.063,1.595-.045.418-.373.25a1.978,1.978,0,0,1,.493.452.83.83,0,0,1,.161.493.711.711,0,0,1-.086.314l-.273.986.273.859v1.072l.209,2.495-.082.336h-.209a.373.373,0,0,0-.441.441c0,.209.067.336.209.374l.65-.041h1.867l.527-.086.333.463.609-.127,1.531-.418,2.895-.317,1.677-.5,1.479-.5a2.1,2.1,0,0,0,1.068-.545l.441-.605.818-.568.086-.336.564-.336.209-.314,1.449-1.363.273-.859Z"
              transform="translate(-723.799 -228.114)"/>
        <path d="M1159.074,394.007c-.426,0-.669-.276-.669-.747a.877.877,0,0,1,.06-.373l.415-.747-.12-1.2.418-3.391-.3-1.557.373-2.144-.082-.788.374-1.307v-.418h-.3l-.06-.639.1-.441.25-.564-.037-.3.037-.471-.306-.411-.127-2.424.086-.605.049-.971.168-.564-.3-.829.086-1.434-.06-.426.374-.213-.063-.885h-.5l-.03-.149a5.6,5.6,0,0,1-.131-1.023,12.406,12.406,0,0,1,.127-1.345v-.1h-.056l-.713-.247-.291-.258-.515-.052.056-1.079.474-.168,2.824-1.1,4.213.232.878-.164a4.5,4.5,0,0,1,1.165-.108h.777l1.386.149.93.041.329-.041.8-.045.232.067.314.374h1.867l.994.392.508-.243,1.438.273.441.437a1.591,1.591,0,0,0,.53.411l1.651.127,2.357,1.326-.078.157a1.591,1.591,0,0,0-.108.239c0,.026.037.176.374.43l.071.049.049.631.3.893-.351,1.21a2.1,2.1,0,0,1-.5,1.042,2.752,2.752,0,0,1-1.12.448l-.187.064.31.254-.03.116a2.613,2.613,0,0,1-.721,1.154l-.049.049h-.067a2.3,2.3,0,0,0-.713.131.966.966,0,0,0-.295.228l.4.19-1.094.863-1.068.452-.515.374-1.236.3a5.228,5.228,0,0,0-1.079.586l-.807.459-.31-.09-.889.318-1.778.444-1.12.373-1.012-.082-.6.314-.62-.041-.426.172-.616-.093a3.159,3.159,0,0,0-1.12.243l-2.114.866-.056.25.191,2.431-.183.433.306,2.043v.62h-.168c-.482.045-.482.228-.482.3v.045l.523,1.184.168,2.7.086,1.023a.829.829,0,0,1-.568.885l-.635.2-.665.624-.553.045-.949.5A.746.746,0,0,1,1159.074,394.007Zm-.28-.956a1.236,1.236,0,0,0,0,.2c0,.347.142.373.291.373,0,0,.026,0,.131-.067l1.053-.542.459-.037.672-.605.672-.209c.142-.049.31-.149.31-.515l-.082-1.012-.168-2.674-.527-1.2v-.086c0-.243.119-.542.65-.642v-.258l-.321-2.121.194-.448-.187-2.394.108-.5.538-.205,1.755-.747a3.538,3.538,0,0,1,1.307-.265l.545.078.411-.164.6.041.609-.317,1.042.086,1.076-.373,1.774-.444.982-.347.276.078.665-.373a4.288,4.288,0,0,1,1.2-.631l1.18-.284.471-.355,1.064-.452.572-.437-.3-.142.153-.187a1.819,1.819,0,0,1,.59-.512,2.615,2.615,0,0,1,.769-.161,2.3,2.3,0,0,0,.542-.822l-.586-.482.258-.127a4.346,4.346,0,0,1,.527-.2,2.424,2.424,0,0,0,.964-.373,1.753,1.753,0,0,0,.373-.863l.321-1.1-.284-.852-.034-.478a.967.967,0,0,1-.471-.71.521.521,0,0,1,.071-.217l-2.013-1.12-1.591-.108a1.868,1.868,0,0,1-.71-.512l-.374-.373-1.2-.228-.545.261-1.12-.437h-1.938l-.374-.4-.063-.019-.724.041-.344.041-.975-.041-1.375-.149h-.747a4.31,4.31,0,0,0-1.079.1l-.941.179-4.176-.232-2.988,1.162-.026.474.28.03.351.31.59.187a.374.374,0,0,1,.254.138.489.489,0,0,1,.108.321v.045l-.019.041-.034.052a10.563,10.563,0,0,0-.116,1.225,4.86,4.86,0,0,0,.094.8h.545l.1,1.464-.351.205.026.213-.082,1.457.325.8-.2.669-.041.923-.086.583.127,2.278.321.43-.045.575.045.373-.284.639-.075.329.022.243h.332v.867l-.347,1.266.082.766-.374,2.133.291,1.546-.422,3.406.131,1.274-.471.829Zm6.6-14.671-.34-.467-.411.067h-1.916l-.672.041h-.03a.508.508,0,0,1-.344-.557.571.571,0,0,1,.627-.627h.063l.041-.164-.209-2.465v-1.061l-.28-.885.288-1.038a.579.579,0,0,0-.045-.65,1.887,1.887,0,0,0-.448-.407l-.228-.153.534-.374.034-.329.064-1.584a1.494,1.494,0,0,1,.347-1.008,1.7,1.7,0,0,1,1-.512h0l2.689.086,1.21-.426,1.808.3h1.983a13.231,13.231,0,0,1,4.579,1.12l.254-.209.1.045a1.653,1.653,0,0,1,.411.228,2.865,2.865,0,0,1,.444.523l1.494,1.524.161.549.374.687-.276.81-.288.9-1.464,1.382-.258.351-.5.3-.082.325-.848.59-.422.583a2.131,2.131,0,0,1-1.169.613l-1.442.482-1.684.5-2.924.321-1.494.415Zm-.172-.87.333.456.489-.1,1.52-.418,2.924-.317,1.643-.5,1.442-.482c.747-.228.93-.4.971-.467l.493-.665.747-.523.086-.344.6-.355.213-.31,1.412-1.33.486-1.494-.3-.579-.146-.489-1.457-1.494a3.1,3.1,0,0,0-.4-.478.945.945,0,0,0-.217-.127l-.25.205-.1-.041a13.247,13.247,0,0,0-4.542-1.139h-2.005l-1.744-.288-1.184.415-2.723-.082a1.288,1.288,0,0,0-.747.373,1.121,1.121,0,0,0-.258.769l-.063,1.6-.052.515-.232.157a1.664,1.664,0,0,1,.321.332,1.023,1.023,0,0,1,.194.6.906.906,0,0,1-.1.4l-.247.9.265.863v1.072l.224,2.547-.127.508h-.373c-.191,0-.254.064-.254.254,0,.127.03.172.052.187l.609-.037h1.9Z"
              transform="translate(-723.48 -227.8)"/>
        <path d="M1239.6,390.745a.611.611,0,0,1-.082.25l-.818.695-.859,1.236h-.691l-.422.086-.041-.373-.25-.527.041-.418-.041-.4a2.8,2.8,0,0,1-.373-1.027h-.336l-.168-.463-.747-1.423-.127-.747-1.068-1.845a1.867,1.867,0,0,1-.19-.859.8.8,0,0,1,.034-.149,1.254,1.254,0,0,0,0-.187,1.5,1.5,0,0,1-.586-.523,6.622,6.622,0,0,1-.9-2.058l-.747-.336c-.123.631-.374.945-.747.945h-.086l-2.181-.4-.773.045-.568-.086-2.988.4-1.763-.086-.941.254-.747-.254-.568-.146a1.709,1.709,0,0,1-.459.463,1.023,1.023,0,0,1-.482.1h-.127l-1.845-.127-.691.168-.9.041q-.459.108-1.027,1.427l-.374.818-.232.082a14.5,14.5,0,0,1-1.572,3.044l-.041.441-.314.459-1.154,2.581c-.086.25-.4.441-.945.564l.041.336a4.2,4.2,0,0,1-.691.041,2.29,2.29,0,0,1-1.281-.459l.818-1.427.59-.747.482-.777.291-.463.3-.4v-.168c.571-.086.859-.344.859-.777v-.489l.65-.777.9-1.968.523-.747.586-1.3.695-1.322.863-1.356.859-.814a.288.288,0,0,0,.082-.213.572.572,0,0,0-.209-.374,3.668,3.668,0,0,0,.545-.452,1.785,1.785,0,0,0,.314-.489l-.25-.4.25-.418.336-.986a2.749,2.749,0,0,1,.527-.527l-.045-.209.945-2.413.747-1.968a4.574,4.574,0,0,1,.941-1.345l-.168-.459.127-.568a3.932,3.932,0,0,1,.243-.84.672.672,0,0,1,.4-.332,4.52,4.52,0,0,1,.724-.19l.127-.314-.209-.631a1.346,1.346,0,0,1-.086-.355.433.433,0,0,1,.254-.418l1.423-.945.3-.65a1.625,1.625,0,0,1,1.173-.609l.254.859h.25l-.082.232.291.627.609.777.777,1.427.418,1.154.527.945-.527.164a.512.512,0,0,0,.19.4c.5.3.747.568.747.818l-.041.374.482.527.568.941.291.5.041.168-.168.4.086.418.3.4.605.5.747,1.468.374.654v.5c.545.478.818.84.818,1.091a1.8,1.8,0,0,1-.086.3l.422.418.941,1.595q.127.19.2.325c.048.09.131.239.25.441s.2.347.243.43a4.038,4.038,0,0,1,.407.713,2.567,2.567,0,0,1,.075.586c.489.239.747.512.747.818,0,.03,0,.056-.06.086l-.086.9a1.2,1.2,0,0,1,.086.3l.859.441.273.374.127.4c.052.213.284.422.691.631v.482l.713.747.691,1.15.373.422a2.844,2.844,0,0,1,.4.669A1.622,1.622,0,0,1,1239.6,390.745Zm-8.616-10.779-.19-.168.086-.146-.086-.209h-.418a3.622,3.622,0,0,1-.4-1.595l-.041-.422-.8-.209-1.008-1.991h-.3l-1.277-2.517.168-.482-.127-.527-.986-.5-1.494-2.988a4.07,4.07,0,0,0-.986-.967l-.25.19-.273.859-.168.041a6.11,6.11,0,0,1-.374,1.091,3.4,3.4,0,0,1-.527.59,1.646,1.646,0,0,0-.609.986l-.082.5-.945,2.077c-.1.254-.187.471-.273.65s-.138.3-.168.374a1.743,1.743,0,0,1-.146.232,1.357,1.357,0,0,1-.232.25l-.168.441a1.55,1.55,0,0,1-.273.512.8.8,0,0,1-.459.116l-.045.486a4.247,4.247,0,0,1-.344,1.572,2.615,2.615,0,0,1-.893.922l.374.586a.6.6,0,0,0-.374.146,1.009,1.009,0,0,0-.209.418l-.146.527.374.041.695.209.542-.082.486.168.082-.168.373-.041,2.708.168,1.718-.127.691.291a.812.812,0,0,1,.22-.176,1.963,1.963,0,0,1,.452-.064c.25-.022.642-.067,1.173-.138l.568-.082-.082.209.164.086c.127,0,.28-.112.463-.336l.568-.045,1.677-.157c.373-.034.609-.064.691-.082a2.208,2.208,0,0,0,.374-.168,3.488,3.488,0,0,0,.486-.351Z"
              transform="translate(-755.081 -226.615)"/>
        <path d="M1236.2,392.92l-.063-.545-.261-.545.049-.452-.037-.344a3.359,3.359,0,0,1-.336-.9h-.306l-.213-.583-.747-1.46-.123-.7-1.053-1.815a2.121,2.121,0,0,1-.213-.952v-.045a.966.966,0,0,1,.026-.134.2.2,0,0,0,0-.049,1.592,1.592,0,0,1-.556-.534,7.048,7.048,0,0,1-.908-2.024l-.441-.2c-.161.575-.452.866-.863.866h-.086l-2.192-.4-.773.041-.56-.082-2.988.392-1.763-.078-.971.258-.788-.269-.433-.112a1.643,1.643,0,0,1-.444.411,1.154,1.154,0,0,1-.571.131h-.127l-1.83-.127-.665.164-.937.045c-.1.026-.4.239-.863,1.315l-.415.893-.22.082a14.943,14.943,0,0,1-1.535,2.958l-.045.441-.34.5-1.12,2.551c-.09.276-.374.489-.908.631l.045.351-.176.026a4.63,4.63,0,0,1-.725.045,2.469,2.469,0,0,1-1.386-.493l-.142-.1.9-1.576.6-.747.747-1.221.265-.374V387.9l.161-.022c.627-.09.7-.373.7-.59v-.571l.68-.81.889-1.946.542-.747.571-1.27.695-1.33.855-1.434.859-.818a.094.094,0,0,0,.026-.075c0-.026,0-.1-.153-.243l-.157-.157.179-.127a3.743,3.743,0,0,0,.519-.43,1.492,1.492,0,0,0,.235-.351l-.258-.407.3-.5.329-.964c.045-.1.135-.217.5-.534l-.03-.161.964-2.461.747-1.968a4.531,4.531,0,0,1,.9-1.318l-.149-.407.138-.62a4.068,4.068,0,0,1,.258-.881.855.855,0,0,1,.5-.426,4.535,4.535,0,0,1,.654-.179l.063-.157-.19-.564a1.436,1.436,0,0,1-.093-.415.616.616,0,0,1,.373-.586l1.363-.9.3-.642a1.8,1.8,0,0,1,1.3-.676h.153l.254.87h.373l-.149.411.25.538.6.747.792,1.453.43,1.18.624,1.12-.586.187a.457.457,0,0,0,.1.131c.542.31.818.631.818.956l-.034.314.448.493.881,1.494.056.228-.172.4.067.321.254.347.639.549.747,1.468.4.683v.471c.557.5.818.87.818,1.173a.751.751,0,0,1-.06.243l.374.374.945,1.591c.082.127.149.239.2.332s.131.235.247.437.205.355.246.441a3.38,3.38,0,0,1,.422.747,2.475,2.475,0,0,1,.075.527c.493.261.747.575.747.934a.253.253,0,0,1-.067.176l-.075.784c.019.052.034.116.056.194l.822.422.325.467.127.4c.026.1.134.28.6.519l.1.052v.523l.687.713.691,1.154.34.392a3.031,3.031,0,0,1,.426.721,1.668,1.668,0,0,1,.161.575.78.78,0,0,1-.1.336l-.049.06-.8.676-.9,1.3h-.788Zm.06-1.158.246.538v.176l.22-.045h.65l.837-1.191.788-.669a.372.372,0,0,0,.045-.134,1.351,1.351,0,0,0-.131-.433,2.6,2.6,0,0,0-.373-.624l-.374-.415-.7-1.162-.747-.773v-.444a1.277,1.277,0,0,1-.687-.695l-.112-.373-.232-.318-.893-.459-.022-.082c-.037-.149-.06-.239-.071-.269l.168-.063h-.187v-.168l.078-.84.049-.03c-.03-.209-.239-.411-.624-.6l-.1-.049v-.108a2.543,2.543,0,0,0-.064-.542,4.11,4.11,0,0,0-.373-.669c-.052-.1-.131-.239-.247-.437s-.205-.355-.254-.444-.112-.19-.191-.31l-.937-1.584-.486-.486.037-.108a1.654,1.654,0,0,0,.075-.25c0-.071-.075-.34-.747-.934l-.063-.056v-.538l-.351-.605-.725-1.445-.609-.512-.325-.471-.1-.478.168-.392-.022-.082-.84-1.4-.527-.575.049-.459c0-.082-.086-.3-.661-.639a.71.71,0,0,1-.284-.56v-.134l.437-.142-.415-.747-.429-1.18-.766-1.4-.613-.784-.325-.7.019-.052h-.127l-.247-.84a1.393,1.393,0,0,0-.878.5l-.306.68-1.471.971a.265.265,0,0,0-.168.265,1.23,1.23,0,0,0,.075.3l.232.695-.191.474h-.1a4.957,4.957,0,0,0-.695.179.515.515,0,0,0-.3.246,3.82,3.82,0,0,0-.224.792l-.116.515.191.519-.078.082a4.583,4.583,0,0,0-.907,1.281l-.747,1.972-.926,2.364.052.261-.082.071a2.718,2.718,0,0,0-.478.467l-.344,1-.19.321.243.374-.041.093a2.027,2.027,0,0,1-.351.542,3.4,3.4,0,0,1-.407.355.6.6,0,0,1,.123.344.463.463,0,0,1-.138.344l-.844.8-.8,1.363-.687,1.311-.583,1.292-.542.747-.911,1.979-.609.725v.437c0,.344-.153.777-.859.93v.075l-.329.448-.769,1.225-.6.747-.713,1.251a2.01,2.01,0,0,0,1.031.332h.482l-.037-.317.164-.037c.459-.108.747-.265.807-.444l1.162-2.6.3-.452.045-.441.026-.037a14.473,14.473,0,0,0,1.55-2.988l.03-.082.239-.086.347-.747c.407-.956.777-1.445,1.154-1.531l.934-.045.687-.168,1.867.127h.116a.81.81,0,0,0,.373-.082,1.542,1.542,0,0,0,.407-.411l.075-.1.687.179.691.239.919-.246,1.789.086,2.988-.4.575.082.777-.041h.022l2.181.4h.052c.258,0,.444-.265.549-.792l.049-.232,1.035.471.019.1a6.558,6.558,0,0,0,.878,1.994,1.237,1.237,0,0,0,.512.452l.1.052v.116a1.581,1.581,0,0,1,0,.22,1.368,1.368,0,0,1-.03.138,1.752,1.752,0,0,0,.168.747l1.087,1.9.123.706.721,1.4.131.373h.374v.168a2.667,2.667,0,0,0,.336.96v.067l.045.418Zm-12.4-10.589-.747-.325-1.677.12-2.738-.168-.243.026-.112.224-.594-.205-.542.082-.747-.22-.542-.06.205-.747a1.122,1.122,0,0,1,.258-.5.586.586,0,0,1,.209-.138l-.332-.519.149-.1a2.4,2.4,0,0,0,.833-.855,4.232,4.232,0,0,0,.325-1.494l.056-.646h.161c.284,0,.344-.063.347-.067a1.5,1.5,0,0,0,.224-.444l.183-.482.037-.034a1.014,1.014,0,0,0,.2-.217,1.532,1.532,0,0,0,.134-.205c.026-.052.082-.172.164-.351s.172-.392.269-.639l.938-2.062.078-.482a1.8,1.8,0,0,1,.669-1.094,3.1,3.1,0,0,0,.489-.542,6.305,6.305,0,0,0,.374-1.046l.026-.1.172-.045.261-.814.415-.314.116.093c.833.68.994.915,1.042,1.046l1.472,2.924,1.008.512.161.661-.161.459,1.191,2.346h.3l1.02,2.021.84.22.056.549a4.239,4.239,0,0,0,.31,1.427h.448l.164.411-.052.093.247.217-.183.138a4.053,4.053,0,0,1-.542.34,1.838,1.838,0,0,1-.429.183,4.536,4.536,0,0,1-.721.09l-2.166.194a.792.792,0,0,1-.556.344h-.041l-.373-.183.026-.067-.243.037c-.53.071-.93.116-1.188.138a2.467,2.467,0,0,0-.4.049.929.929,0,0,0-.157.138Zm-.706-.706.624.265a.615.615,0,0,1,.187-.131,1.807,1.807,0,0,1,.508-.078c.25-.022.642-.067,1.165-.134l.885-.131-.119.3a1.1,1.1,0,0,0,.224-.224l.052-.063.646-.045,1.673-.157a5.533,5.533,0,0,0,.665-.082,1.817,1.817,0,0,0,.347-.149,2.766,2.766,0,0,0,.3-.179l-.127-.112.116-.2h-.374l-.056-.067c-.123-.146-.306-.478-.444-1.7l-.026-.291-.747-.2-.994-1.965h-.291L1226,372.437l.176-.508-.093-.373-.964-.493-1.539-3.055c-.022-.06-.127-.232-.822-.81l-.09.063-.284.9-.164.041a4.582,4.582,0,0,1-.373,1.031,3.279,3.279,0,0,1-.553.627,1.468,1.468,0,0,0-.553.874l-.1.557-.941,2.077c-.1.247-.19.467-.273.65s-.142.306-.172.373a2.1,2.1,0,0,1-.161.258,1.633,1.633,0,0,1-.228.25l-.149.4a1.579,1.579,0,0,1-.321.586.747.747,0,0,1-.415.146l-.03.329a4.357,4.357,0,0,1-.373,1.643,2.647,2.647,0,0,1-.8.885l.448.7-.31.026a.4.4,0,0,0-.258.093.747.747,0,0,0-.164.336l-.086.314.138.019.684.2.549-.082.374.127.056-.112.493-.086,2.738.168Z"
              transform="translate(-754.718 -226.301)"/>
        <g transform="translate(199.167 7.302)">
            <path class="a"
                  d="M530.814,17.89l1.494.134A60.132,60.132,0,0,1,550.9,22.574a29.909,29.909,0,0,1,8.844,5.55,22.212,22.212,0,0,1,3.817,4.829,18.376,18.376,0,0,1,2.424,10.189,44.106,44.106,0,0,1-.519,5.6,18.38,18.38,0,0,0-.075,2.988,27.243,27.243,0,0,0,2.118,9.9c2.7,6.667,6.036,12.512,10.368,17.031,1.994,2.08,4.023,4.09,6.036,6.133.067.067.138.127.247.22.452-.9.893-1.8,1.345-2.682,2.428-4.713,4.885-9.386,7.276-14.14a138.25,138.25,0,0,0,5.6-12.945c.093-.239.176-.489.265-.747a7.818,7.818,0,0,0,.127-5.016c-.474-1.733-.893-3.5-1.244-5.289a18.973,18.973,0,0,1-.041-7.066c.127-.71.243-1.423.336-2.144a3.429,3.429,0,0,0-.594-2.487c-.082-.116-.161-.235-.246-.336a4.888,4.888,0,0,1-.5-5.027c.773-1.621,2.289-2.129,3.451-1,.519.5.837.411,1.307.026a12.239,12.239,0,0,1,8.049-2.924c4.792.03,8.732,4.826,9.8,11.828a3.418,3.418,0,0,0,.09.336l.134,2.286c-.034.571-.063,1.147-.112,1.718-.4,4.826-2.114,8.34-4.788,10.891a18.565,18.565,0,0,1-5.849,4c-2.685,1.053-4.93,3.231-6.966,5.9a59.326,59.326,0,0,0-8.34,14.891,41.218,41.218,0,0,0-2.271,9.748,61.929,61.929,0,0,1-1.33,7.518,1.121,1.121,0,0,0,.052.639c3.324,6.592,6.166,13.621,9.087,20.583,3.671,8.732,7.492,17.334,11.111,26.107,2.42,5.868,4.642,11.907,6.876,17.928a35.449,35.449,0,0,1,1.867,9.154c-.1-.157-.217-.306-.31-.474-2.316-4.011-4.646-8.011-6.943-12.045-2.148-3.787-4.351-7.526-6.383-11.444-3.47-6.678-7.279-12.945-10.831-19.511-2.614-4.833-5.117-9.815-7.664-14.734-.463-.893-.915-1.8-1.445-2.839-8.034,21.812-16.807,42.869-24.632,64.961a25.067,25.067,0,0,1-.4-4.445,37.911,37.911,0,0,1,1.6-10.084c1.064-3.955,2.219-7.843,3.335-11.772,3.036-10.637,6.013-21.315,9.128-31.9,1.662-5.632,3.559-11.1,5.36-16.628.261-.8.6-1.531.878-2.312a.986.986,0,0,0,0-.579,113.138,113.138,0,0,0-5.6-11.683,8.34,8.34,0,0,0-4.381-3.963,9.434,9.434,0,0,1-2.581-1.4c-.975-.747-1.229-1.752-1.057-3.29.041-.351.071-.706.093-1.064a11.358,11.358,0,0,0-.579-4.168c-1.557-4.855-3.925-8.478-7.332-10.536a10.131,10.131,0,0,0-3.851-1.027c-.99-.161-1.972-.407-2.954-.665-2.372-.624-4.172-2.551-5.468-5.569a28.423,28.423,0,0,1-1.789-5.826,13.876,13.876,0,0,1,.187-5.953c.527-2.2,1.087-4.374,1.584-6.585a9.307,9.307,0,0,0,.254-2.435,3.944,3.944,0,0,0-1.33-2.753,15.729,15.729,0,0,0-8.011-4.43q-2.314-.392-4.628-.747a12.023,12.023,0,0,0-1.218-.019A3.33,3.33,0,0,1,529,18.947l-.022-.373,1.02-.642Zm77.653,9.337c-.747.157-1.494.265-2.241.478-2.943.855-5.065,3.2-6.11,7.41a26.846,26.846,0,0,0-.624,5.741c-.1,3.892,1.363,7.1,3.881,8.5a5.6,5.6,0,0,0,5.229.325,12.329,12.329,0,0,0,6.723-7.052c1.867-4.523,1.094-10.155-1.867-13.39A5.8,5.8,0,0,0,608.466,27.227ZM556.626,52.486a14.624,14.624,0,0,0,1.927-.575c3.455-1.58,5.378-7.5,4.232-12.927-1-4.8-4.549-8.661-7.985-8.728-4.333-.082-7.518,4.792-7.216,11.175.209,4.452,1.658,7.813,4.523,9.685A8.441,8.441,0,0,0,556.626,52.486Z"
                  transform="translate(-528.98 -17.89)"/>
        </g>
        <path class="b"
              d="M968.649,184.506l-.415.967-.65,1.221-1.18.557-1.714,1.12-1.535.609a8.485,8.485,0,0,1-1.774.766.717.717,0,0,1-.56-.373,1.24,1.24,0,0,1-.265-.687,14.007,14.007,0,0,1,.411-2.29,8.451,8.451,0,0,0,.3-1.782l-.747.661-3.664,1.528a4.4,4.4,0,0,1-2.241.661h-1.655l-1.89,1.12-1.3.205-3.843.967-1.535-.306-1.064.508-.825.205-1.184-.1-2.719-.71-1.83-.205a5.938,5.938,0,0,1-3.249-1.6,7.727,7.727,0,0,1-2.009-3.332l-1.12-.508-.235-1.27-.06-.915-.59-2.39,1.535-3.765.474-1.677a6.4,6.4,0,0,1,1.535-1.931l3.134-3.257,1.359-.609,2.241-1.173a1.165,1.165,0,0,1,.176.026,1.624,1.624,0,0,1,.239.078,3.092,3.092,0,0,1,3.13-2.189l.235-.3h.829a3.361,3.361,0,0,1,1.064-1.12,8.752,8.752,0,0,1,2.009-.661l5.079-1.12,1.535.205,1.894-.508,3.425-.459a2.081,2.081,0,0,0,1.774-2.084.374.374,0,0,0-.12-.306l-.415-2.289.373-3.305a2.472,2.472,0,0,0-.62-1.55,2.633,2.633,0,0,0-1.445-.635l-.594-1.169a9.082,9.082,0,0,0-1.445-2.364,4.869,4.869,0,0,0-2.159-.941l-2.36-.661-2.241-.1-1.061.205a1.653,1.653,0,0,1-.564-.508,2.516,2.516,0,0,1-.325-.915l-1.12.609-1.244,1.475-4.015,2.491a4.986,4.986,0,0,0-1.655,1.677l-.59,1.02a1.259,1.259,0,0,1-1.12.814l-.769-.205-1.18-.71-1.3-.306a3.99,3.99,0,0,1-1.21-.867,1.685,1.685,0,0,1-.624-1.12c0-.205.041-.306.12-.306l.65-.609,1.3-1.274,1.419-.3,2.185-1.374,2.719-1.12.71-.2,1.77-1.169,1.419.3,4.9-1.322,2.129.1h1.535l1.714.71,4.855,1.169.71.512v.71l-.53.407c.157,1.188.489,1.782,1,1.782a.526.526,0,0,1,.116-.078.34.34,0,0,1,.12-.022l1.12-.613h.179c.273,0,.452.172.53.508l.829,1.867.825.814v1.169l-.116,2.614a3.847,3.847,0,0,0,1.3,2.9l.53,7.526-1.12,1.867,1.244,1.83.116.661-.235,4.781.3,3.66V178.4l-.59.205c.078.848.127,1.389.149,1.625a4.041,4.041,0,0,0,.3,1.046c.176.456.373.99.56,1.6Zm-6.5-8.848a4,4,0,0,1-.769-1.12l.179-2.084-.374-4.68.471-1.371-1.3-.915-.65.2-3.78-.306-1.774.1-1.3-1.169-.825.609-2.241.1-1.595.747-.945-.661-1.128.874-6.144,3.66-1.3,1.221-1.064,1.983-1.494,1.068a1.513,1.513,0,0,0-.3.915.414.414,0,0,1,.056.205l.373.609-.116.459.945,4.575-.945,2.9.65,1.016,1.12-1.625c.4.407.747.747,1.064,1.016a4.049,4.049,0,0,0,1.184.687q.706.28,1.77.583l.829,1.427,2.835.355.769-.967.825.508.534-.4.471-.306a7.193,7.193,0,0,0,1.12.407,6,6,0,0,0,3.19-1.423,2.338,2.338,0,0,1,.325-.232c.138-.082.344-.228.62-.433q3.664,0,4.855-1.867l.829-1.322,2.009-2.088.06-.609-.06-.661a1.464,1.464,0,0,0,.769-.609,4.181,4.181,0,0,0,.243-1.378Z"
              transform="translate(-580.742 -88.056)"/>
        <path class="b"
              d="M940.873,189.5l-1.494-.142-2.652-.695-1.811-.2a6.913,6.913,0,0,1-3.735-1.849,8.59,8.59,0,0,1-2.118-3.32l-1.2-.545-.34-1.867-.052-.833-.642-2.614,1.628-4,.478-1.688a6.974,6.974,0,0,1,1.763-2.286l3.238-3.361,1.494-.672,2.428-1.266h.093a3.869,3.869,0,0,1,3.2-2.062l.254-.325h.8a3.7,3.7,0,0,1,1.079-1,9.164,9.164,0,0,1,2.241-.747l5.259-1.158,1.516.2,1.83-.482,3.361-.448c.747-.232.975-.586,1.023-.956l-.034-.03-.5-2.741.373-3.335a1.613,1.613,0,0,0-.329-.885,1.8,1.8,0,0,0-.949-.373l-.471-.078-.807-1.595a8.216,8.216,0,0,0-1.255-2.107,4.142,4.142,0,0,0-1.744-.713l-2.282-.639-2.028-.09-1.3.247-.3-.172a2.614,2.614,0,0,1-.874-.8c-.019-.034-.041-.064-.064-.1h0l-1.225,1.453-4.108,2.558a4.015,4.015,0,0,0-1.333,1.322l-.026.045-.579,1a2.151,2.151,0,0,1-1.942,1.3H936.6l-1.012-.269-1.173-.706-1.311-.321a5.12,5.12,0,0,1-1.494-1.057,2.532,2.532,0,0,1-.9-1.785,1.177,1.177,0,0,1,.527-1.094l.538-.5,1.494-1.445,1.52-.329,2.189-1.356,2.816-1.154.572-.164,1.979-1.307,1.58.34L948.735,139l2.241.108h1.7l1.819.747,4.949,1.2,1.247.893V143.6l-.448.344a2.407,2.407,0,0,0,.086.291l1.023-.557h.415a1.453,1.453,0,0,1,1.416,1.12l.725,1.651.979.96v1.606l-.116,2.57a2.921,2.921,0,0,0,1,2.2l.265.246.579,8.187-.967,1.621,1.016,1.494.172.96-.239,4.826.3,3.675v2.678l-.527.179c.041.441.067.747.082.9a3.193,3.193,0,0,0,.235.784c.179.471.373,1.012.579,1.655l.706,1.942-.594,1.374-.8,1.494-1.4.665-1.826,1.169-1.494.6c-1.584.784-1.867.844-2.155.844a1.6,1.6,0,0,1-1.326-.781,2.156,2.156,0,0,1-.433-1.221,10.622,10.622,0,0,1,.374-2.185l-2.741,1.139a5.277,5.277,0,0,1-2.659.747h-1.4l-1.838,1.1-1.438.224-4,1.008-1.438-.288-.87.418Zm-1.094-1.95.949.082.583-.142,1.259-.6,1.636.321,3.735-.93,1.12-.176,1.953-1.158h1.912a3.447,3.447,0,0,0,1.77-.534l.116-.056,3.526-1.468,2.409-2.073-.217,2.3a9.218,9.218,0,0,1-.325,1.946,12.037,12.037,0,0,0-.374,2.028l.03.049c.217-.09.586-.261,1.221-.575l.067-.03,1.449-.575,1.748-1.12.9-.426.486-.911.25-.59-.463-1.281c-.209-.642-.373-1.147-.553-1.584a4.855,4.855,0,0,1-.373-1.307c0-.228-.067-.769-.146-1.613l-.067-.747.654-.224v-1.307l-.3-3.683.235-4.736-.063-.373-1.464-2.159,1.277-2.14-.486-6.887a4.7,4.7,0,0,1-1.326-3.309v-.045l.116-2.573V148.2l-.676-.665-.807-1.838-.84.452-.12.1h-.344c-1.057,0-1.7-.874-1.931-2.592l-.071-.534.441-.34h-.019l-4.807-1.173-1.542-.639H950.92l-1.991-.108-1.722.463.176.915a1.536,1.536,0,0,0,.179.564l.026.037.747-.146,2.461.112,2.469.691a5.747,5.747,0,0,1,2.547,1.162,9.283,9.283,0,0,1,1.643,2.637l.374.747a3.253,3.253,0,0,1,1.46.781,3.361,3.361,0,0,1,.9,2.121v.1l-.351,3.272.351,1.95a1.371,1.371,0,0,1,.172.68,3.016,3.016,0,0,1-2.45,2.988l-.135.026-3.361.448-2.013.542-1.557-.205-4.923,1.083a7.469,7.469,0,0,0-1.744.56,2.487,2.487,0,0,0-.747.818l-.276.426h-.874l-.235.3h-.459a2.175,2.175,0,0,0-2.26,1.584l-.34.908-.825-.347-1.935,1.053-1.2.534-2.988,3.126a5.957,5.957,0,0,0-1.318,1.576l-.527,1.733-1.423,3.481.545,2.241.056.859.135.747,1.057.482.127.392a6.906,6.906,0,0,0,1.763,2.939,5.024,5.024,0,0,0,2.734,1.356l1.942.224Zm-3.455-38.1.463.123a.612.612,0,0,0,.228-.291l.022-.045.579-.993a5.842,5.842,0,0,1,1.942-2l.041-.026,3.892-2.416,1.259-1.494,1.083-.59-1.867.508-1.259-.273L941.142,143l-.8.228-2.614,1.068-2.241,1.419-1.315.284-1.52,1.468a1.923,1.923,0,0,0,.269.314,3.261,3.261,0,0,0,.859.642l1.352.317Zm8.011,37-3.813-.482-.874-1.494c-.579-.172-1.083-.344-1.494-.508a4.927,4.927,0,0,1-1.449-.848l-.318-.28-1.289,1.867-1.647-2.573,1-3.081-.937-4.549.078-.3-.291-.5v-.1l-.056-.1v-.247a2.446,2.446,0,0,1,.471-1.464l.09-.12,1.423-1.031,1.035-1.927,1.494-1.4,6.178-3.675,1.628-1.27,1.061.747,1.274-.609,2.151-.1,1.214-.9,1.576,1.419,1.449-.082,3.664.3.915-.288,2.241,1.587-.639,1.867.344,4.56-.161,1.909a4.148,4.148,0,0,0,.512.669l.258.291-.022.373a4.591,4.591,0,0,1-.332,1.737,1.95,1.95,0,0,1-.62.71v.149l-.1,1.02-2.166,2.241-.777,1.24c-.93,1.494-2.723,2.263-5.326,2.319-.187.131-.329.228-.444.3a1.439,1.439,0,0,0-.2.138l-.056.045a6.8,6.8,0,0,1-3.735,1.606,2.674,2.674,0,0,1-1.023-.3l-.034.022-1.012.773-.672-.411Zm-2.663-2.219,1.867.232.956-1.2.986.609.086-.06.881-.568.448.183c.527.213.766.3.87.336a5.423,5.423,0,0,0,2.517-1.221,3.492,3.492,0,0,1,.411-.291,6.68,6.68,0,0,0,.557-.373l.247-.183h.306c2.088,0,3.455-.486,4.056-1.442l.878-1.4,1.867-1.92.022-.2-.112-1.247.62-.269a.882.882,0,0,0,.31-.183h0a2.991,2.991,0,0,0,.1-.627,4.216,4.216,0,0,1-.68-1.094l-.078-.2.19-2.241-.374-4.8.31-.893-.351-.247-.374.12-3.9-.314-2.1.12-1.023-.919-.441.325-2.342.108-1.916.915-.829-.583-.672.512-6.058,3.608-1.12,1.046-1.094,2.039L935.211,173a.518.518,0,0,0-.045.127l.463.8-.161.62.952,4.605-.25.773.784.814c.373.373.71.706,1,.956a3.088,3.088,0,0,0,.915.527,15.967,15.967,0,0,0,1.688.557l.374.1Z"
              transform="translate(-579.07 -86.465)"/>
        <path class="b"
              d="M1066.671,92.741l-.12,2.7.06,2.084a1.621,1.621,0,0,1-.59,1.274l.235,1.221-.885.2-2.719,2.084-1.064.205-1.24.964a1.569,1.569,0,0,0-.3.026l-.3.078c-.515,0-.769-.205-.769-.613v-1.27l-.235-2.289.53-5.543.235-7.07a11.486,11.486,0,0,1,.889-4.269l-.474-1.58a9.1,9.1,0,0,1-.71-1.83,8.741,8.741,0,0,1,1-2.951,3.443,3.443,0,0,0,.415-1.677q0-.713-1.24-1.322l.176-.863-.374-.205V70.571l.71-3.559V58.265l.829-4.071a2.657,2.657,0,0,0-1-1.778v-2.39l-.179-9.154a10.417,10.417,0,0,1,1.064-3.459l.65-1.322q-1.535-.863-1.535-1.576,0,.2.235-1.983l-.829-.915V29.633l-.176-2.39v-.459l.71-2.592-.71-3.612.176-1.782-.825-5.95v-.814l.3-1.677.3-2.084,3.664-2.491,1.655-1.576.71-.205.53,1.12.12,2.185.3,1.494.12.863v1.221l-.3,3.765v.306l.12,1.778a3.614,3.614,0,0,1-.176,1.322L1064.7,20.7l-.179,1.02a1.548,1.548,0,0,1,1.064.329,2.694,2.694,0,0,1,.235,1.449v1.12a1.961,1.961,0,0,1-1,1.677V27.53l-.06,1.02v.407l.71,1.494-.3,9.711v6.969l-1.12,2.693.654,3.866-.889,2.491a3.325,3.325,0,0,0,.71,1.169l.71.919.355,16.475-1.064,1.423a11.467,11.467,0,0,1,.179,2.088,13.283,13.283,0,0,1-.415,3.361l.415,1.12h1.12V84.6Z"
              transform="translate(-661.449 -1.886)"/>
        <path class="b"
              d="M1058.385,102.624h-.131a1.523,1.523,0,0,1-1.7-1.546V99.857l-.243-2.334.538-5.6.235-7.04a13.142,13.142,0,0,1,.829-4.3l-.373-1.191c-.71-1.58-.747-1.9-.747-2.159a8.487,8.487,0,0,1,1.094-3.361l.022-.045a2.541,2.541,0,0,0,.3-1.233,2.167,2.167,0,0,0-.721-.489l-.646-.317.187-.908-.239-.138V68.5l.691-3.47V56.27l.822-4.041a2.108,2.108,0,0,0-.714-1.038l-.284-.276V48.128l-.179-9.136a11.041,11.041,0,0,1,1.143-3.851V35.1l.276-.568a3.532,3.532,0,0,1-.994-1h-.265v-.9h.9l-.829-.172c0-.063.045-.344.172-1.494l-.788-.87V27.781l-.176-2.424v-.583l.683-2.506-.695-3.529.183-1.808-.822-5.976V9.98l.3-1.677.347-2.465,3.94-2.682,1.767-1.681,1.692-.486L1064.914,3l.123,2.3.3,1.464.127.99v1.3l-.3,3.963.123,1.8a4.408,4.408,0,0,1-.239,1.662l-.919,2.581a1.651,1.651,0,0,1,.7.467,3.072,3.072,0,0,1,.459,2.054V22.7a2.771,2.771,0,0,1-1,2.14V25.7l-.06,1.158.717,1.494-.3,9.942v7.145l-1.091,2.614.646,3.839-.848,2.383a4.389,4.389,0,0,0,.426.6l.919,1.184.374,17.106-1.02,1.363a13.214,13.214,0,0,1,.127,1.845,14.354,14.354,0,0,1-.374,3.3l.09.239h1.4V82.68l.829,8.157-.12,2.73.06,2.05a2.569,2.569,0,0,1-.519,1.587l.318,1.64-1.565.373-2.734,2.1-1.061.2-1.315,1.023h-.321a.426.426,0,0,0-.1,0,2.141,2.141,0,0,0-.232.06Zm-.2-5.109.232,2.293v.878h.078l1.191-.93,1.068-.2,2.7-2.077.2-.045-.164-.867.407-.373a.687.687,0,0,0,.269-.564l-.06-2.092.116-2.659-.81-8.157v-.949h-.84l-.747-2.006.075-.284a12.32,12.32,0,0,0,.374-3.119,10.547,10.547,0,0,0-.164-1.916l-.071-.4,1.12-1.494-.34-15.851-.523-.669a4.065,4.065,0,0,1-.874-1.494l-.071-.28.9-2.529-.654-3.892,1.154-2.771V38.272l.288-9.513-.7-1.46v-.676l.056-.99V23.885l.422-.276a1.024,1.024,0,0,0,.583-.9v-1.12a5.121,5.121,0,0,0-.049-.8,2.987,2.987,0,0,0-.373-.045l-1.042-.063.4-2.2.967-2.7a2.572,2.572,0,0,0,.1-.919l-.12-1.808v-.373l.3-3.735V7.821l-.108-.769-.306-1.58-.12-2.006-.052-.112L1061.6,4.665l-3.324,2.241-.235,1.677-.288,1.628v.669l.833,6-.176,1.752.724,3.69-.747,2.685v.3l.176,2.428v1.651l.87.96-.049.418c-.071.669-.127,1.173-.168,1.494a2.378,2.378,0,0,1-.045.347,3.071,3.071,0,0,0,1.042.788l.773.433-1.031,2.1a9.186,9.186,0,0,0-.979,3.066l.179,9.136v2.028a3.25,3.25,0,0,1,1,2.159v.187l-.811,3.978v8.766l-.71,3.559v.893l.471.273-.176.867a2.188,2.188,0,0,1,1.12,1.793,4.418,4.418,0,0,1-.512,2.1,8.81,8.81,0,0,0-.9,2.465,14.64,14.64,0,0,0,.624,1.513l.045.116.571,1.912-.146.321a10.678,10.678,0,0,0-.8,3.925l-.239,7.115ZM1058.646,77.119ZM1063.323,20.647Z"
              transform="translate(-659.946)"/>
        <path class="b"
              d="M1145.647,162.293l-.885-.2.179,1.169-.949.814a3.733,3.733,0,0,0,.325,1.12,4.481,4.481,0,0,0,.747.661l.12,1.016a27.569,27.569,0,0,1-5.348,14.992q-1.154,1.58-1.449,2.088l-1.24.4-7.679,4.482-4.258.2-3.07.967-3.664-.1-1.3.407-3.664-.814-1.494-.1-.825-1.173-2.3-.407-1.064-.71q-1.363-1.322-2.3-2.215c-.631-.59-1.035-.982-1.21-1.169a3.17,3.17,0,0,1-.444-.583l-.885-2.189-1.24-1.27-1-3.2-.373-1.27.471-.407a2.107,2.107,0,0,1,.149-.967,1.553,1.553,0,0,1,.747-.508l-.239-.814-1.359-1.068v-2.08a22.667,22.667,0,0,1,.415-4.325,33.773,33.773,0,0,1,1.419-4.93q1.6-4.482,2.364-5.087l1.655-1.374.885-1.983a3.178,3.178,0,0,1,1.18-1.423l3.843-2.543,2.185-2.185,2.614-1.221,4.553-1.983,3.839-.407,2.954-.1q2.54,0,2.54,1.729.65.747.885.747.594,0,1.359-1.475l1,.306,2.659,1.169,1.064,1.12,1.535,1.173,1.494,2.9a2.715,2.715,0,0,0,2.42.964,11.542,11.542,0,0,1,1.6,3.612,62.363,62.363,0,0,1,.885,6.562Zm-5.909,1.27-1.561-5.845-.235-2.6-.415-.967h-.235a.833.833,0,0,1-.5-.149,2.618,2.618,0,0,1-.478-.553l-2.01-3.1-.65-1.27-3.429-1.983a9.206,9.206,0,0,0-.825-1.494,1.024,1.024,0,0,0-.829-.482,4.6,4.6,0,0,0-1.655.508,4.441,4.441,0,0,0-1.714-.609l-1.18.2-2.009.1-2.719,1.274-.65-.713-.53.814-2.779,2.084-5.08,5.494-.945,1.068a21.719,21.719,0,0,1-1.894,5.95l-.59,1.218v.407a2.487,2.487,0,0,1-.3,1.475,1.867,1.867,0,0,1-1.12.508,5.313,5.313,0,0,1-.176.747c.037.067.067.127.09.176a.4.4,0,0,1,.03.127l1.24,1.782.176,1.12c-.866.881-1.3,1.472-1.3,1.778l.179.609c.235-.336.471-.508.71-.508a.46.46,0,0,1,.471.306l.945,3.765,2.069,4.269-.235,2.614a.967.967,0,0,0,.71.407,1.456,1.456,0,0,0,1.061-.613l.769.306,4.964,3.765,5.023.609,2.835.508,3.249-.71,2.129-.613,2.614-3.361,1.95-.713.945-1.274,2.129-5.6,1.12-1.169a2.062,2.062,0,0,0,.59-1.221v-.25l-.65-2.39Z"
              transform="translate(-687.644 -88.219)"/>
        <path class="b"
              d="M1115.625,189.739l-3.839-.852-1.867-.127-.863-1.218-2.118-.373-1.36-.926q-1.356-1.318-2.293-2.2c-.646-.605-1.053-1-1.247-1.206a3.794,3.794,0,0,1-.575-.747l-.06-.116-.814-2.017-1.27-1.3-1.072-3.417-.523-1.867.613-.527a2.293,2.293,0,0,1,.261-1,1.524,1.524,0,0,1,.373-.415l-1.341-1.053v-2.555a23.564,23.564,0,0,1,.433-4.482,34.607,34.607,0,0,1,1.457-5.072c1.494-4.164,2.177-5.117,2.659-5.5l1.471-1.221.814-1.819a4.056,4.056,0,0,1,1.531-1.808l3.735-2.469,2.241-2.241,2.749-1.289,4.706-2.054,4.049-.426,2.954-.1h0c2.73,0,3.361,1.386,3.477,2.278l.026.03a5.494,5.494,0,0,0,.486-.788l.355-.687,1.868.568,2.831,1.244,1.12,1.2,1.647,1.251,1.546,3.029a1.966,1.966,0,0,0,1.617.515h.512l.276.43a12.471,12.471,0,0,1,1.718,3.907,61.25,61.25,0,0,1,.908,6.678l.314,2.988-.825-.19.049.325-.915.788a2.354,2.354,0,0,0,.075.25,6.21,6.21,0,0,0,.53.444l.31.243.172,1.494A28.7,28.7,0,0,1,1139,180.895c-.93,1.27-1.27,1.793-1.393,2l-.179.306-1.494.489-7.791,4.538-4.362.209-3.107.979-3.664-.1Zm-4.676-2.783,1.173.093,3.421.747,1.21-.373,3.664.1,3.036-.956,4.149-.2,7.567-4.411,1.012-.332c.265-.407.7-1.016,1.307-1.867a26.556,26.556,0,0,0,5.184-14.4l-.067-.583a3.318,3.318,0,0,1-.613-.605,3.6,3.6,0,0,1-.486-1.494l-.1-.53.967-.833-.306-2.013.949.217-.041-.373a60.465,60.465,0,0,0-.866-6.446,10.239,10.239,0,0,0-1.218-2.91,3.345,3.345,0,0,1-2.667-1.359l-.056-.1-1.382-2.708-1.494-1.139-.934-.982-2.439-1.072-.239-.075a2.3,2.3,0,0,1-1.8,1.3c-.557,0-1-.4-1.595-1.091l-.224-.261v-.344c0-.28,0-.8-1.606-.8l-2.891.1-3.664.373-2.857,1.247.893.975,2.263-1.057,2.133-.108,1.285-.205a4.3,4.3,0,0,1,1.744.512,4.482,4.482,0,0,1,1.625-.411,1.912,1.912,0,0,1,1.58.863,9.494,9.494,0,0,1,.8,1.389l3.414,1.976.747,1.475,1.968,3.04a2.144,2.144,0,0,0,.254.306h.833l.713,1.669.243,2.663,1.561,5.946-.706,5.793.631,2.334v.373a2.9,2.9,0,0,1-.8,1.815l-.045.052-.994,1.031-2.106,5.539-1.188,1.6-1.961.717-2.614,3.384-2.476.71-3.432.747-2.988-.538-5.229-.635-5.087-3.795-.1-.041a2.051,2.051,0,0,1-1.266.459,1.868,1.868,0,0,1-1.416-.728l-.261-.3.25-2.73-2-4.108-.747-2.966-.852,1.221-.747-2.614v-.142c0-.471.217-1,1.24-2.092l-.071-.448-1.094-1.569-.31-.034V160.6l1.038,1.815a1.341,1.341,0,0,0,.463-.164,2.655,2.655,0,0,0,.093-.885v-.62l.683-1.412a20.857,20.857,0,0,0,1.808-5.67l.037-.28,1.12-1.281,5.229-5.621,2.648-1.987.949-1.453-1.3.568-2.428,1.139-2.136,2.14-3.985,2.633a2.267,2.267,0,0,0-.788,1l-.967,2.163-1.823,1.513c-.108.1-.668.728-2.08,4.68a33.468,33.468,0,0,0-1.378,4.8,21.7,21.7,0,0,0-.4,4.146v1.643l1.24.975.549,1.894-.747.325a2.213,2.213,0,0,0-.3.149,2.7,2.7,0,0,0-.03.471v.426l-.347.3.2.7.926,2.962,1.214,1.244.926,2.29a2.242,2.242,0,0,0,.284.373c.116.123.415.418,1.173,1.12.616.579,1.374,1.307,2.241,2.166l.829.553,2.491.441Zm4.938-3.858,4.826.586,2.652.474,3.04-.665,1.8-.519,2.577-3.328,1.942-.706.7-.945,2.148-5.651,1.229-1.281a1.549,1.549,0,0,0,.374-.6v-.127l-.665-2.446.71-5.8-1.516-5.83-.224-2.446-.131-.306a1.632,1.632,0,0,1-.661-.3,3.465,3.465,0,0,1-.7-.747l-.026-.041-2.058-3.186-.523-1.027-3.443-1.991-.123-.269a8.7,8.7,0,0,0-.747-1.341.433.433,0,0,0-.1-.108,4.46,4.46,0,0,0-1.244.433l-.411.187-.4-.209a4.653,4.653,0,0,0-1.236-.5l-1.184.2-1.826.09-3.175,1.494-.318-.347-2.786,2.092-5.042,5.412-.747.848a23.457,23.457,0,0,1-1.923,5.927l-.508,1.046v.19a3.145,3.145,0,0,1-.512,2.073,2.208,2.208,0,0,1-.99.65l1.221,1.752.284,1.8-.329.336c-.164.164-.3.31-.418.441a1.375,1.375,0,0,1,.68.747l.037.112.923,3.671,2.136,4.418-.183,2.021.063-.071.433-.5,1.494.594ZM1104.958,170.082ZM1104.211,162.272Z"
              transform="translate(-686.077 -86.678)"/>
        <path class="b"
              d="M1277.262,184.638l-.415,1.475-5.6,3.361a7.187,7.187,0,0,1-1.12-2.29v-.254l.945-4.882.12-2.189.3.1.71-1.016a3.009,3.009,0,0,0-.564-1.068,4.213,4.213,0,0,0-.975-.609l-.176-.814.71-9.509-.415-1.322.06-1.681v-3.866l.47-1.867-.71-.915.06-3.051a9.567,9.567,0,0,0-1.494-3.2v-.508a1.214,1.214,0,0,0-.373-.967l-1-.1-2.069-1.576-3.361.254-3.839-.374a4.044,4.044,0,0,0-1.064,1.274l-.747-.205-3.193.713-1.12.306-1.419,1.371-1.834,1.02a3.085,3.085,0,0,0-1.535,2.439l-.06,4.986-.53,3.1.885,3.051v1.628l-.116,6.051-.769,2.084-.06.747v.3l.77,1.628.235,5.543.3,1.782a1.921,1.921,0,0,1-.235.788,1.442,1.442,0,0,1-.65.687l-2.659.814-.769.2q-.65,1.374-1.24,1.374a1.263,1.263,0,0,1-.885-.56.442.442,0,0,0-.06-.205.869.869,0,0,0-.179-.2c-.078-.273-.116-.373-.116-.306l.59-3.761-.12-4.273.415-1.729-.3-2.85.176-3.1.06-6.562a1.367,1.367,0,0,1,1.419-1.472,2.464,2.464,0,0,0-.415-1.4,2.165,2.165,0,0,0-1.36-.28l.12-9.154.885-.71-.471-1.068-1.12-3.712-.71-1.169.474-1.12.825-1.27,1.494-.814,1.419-1.374a2.166,2.166,0,0,1,1.535-.609,1.7,1.7,0,0,1,1.035.374,1.3,1.3,0,0,1,.56.837l.06,4.781.176,1.576.769-.3a25.951,25.951,0,0,1,3.459-4.2q1.98-1.957,2.988-1.957c.317,0,.594.374.829,1.068a6.958,6.958,0,0,0,1.89-1.169,3.775,3.775,0,0,1,2.009-.814h.235l3.361.407,1.24-.508,3.783.609a4.739,4.739,0,0,1,3.014,1.681l.59-.1a2.443,2.443,0,0,1,2.129,1.427l.59,1.27.825,1.677a7.521,7.521,0,0,1,.59,3.713v2.85l.179,1.221-1,1.576.374,1.27.471,1.12v2.084a2.435,2.435,0,0,1-.056.609l-.594,1.475a4.248,4.248,0,0,0-.176,1.475l.825,1.322-.056,1.475-.119,3.559v.407l.65,1.983.06,4.579Z"
              transform="translate(-775.668 -88.187)"/>
        <path class="b"
              d="M1269.182,189.247l-.486-.788c-1.05-1.711-1.259-2.331-1.259-2.775v-.433l.934-4.818.183-3.361.8.276v-.026a1.265,1.265,0,0,0-.161-.28,3.411,3.411,0,0,0-.747-.444l-.4-.2-.3-1.382.706-9.468-.411-1.3.067-1.838v-3.944l.373-1.554-.631-.818.063-3.253a8.811,8.811,0,0,0-1.251-2.783l-.168-.243v-.889l-.781-.078-1.995-1.52-3.093.235-3.526-.329a4.916,4.916,0,0,0-.575.792l-.374.594-1.221-.321-2.947.657-.87.235-1.333,1.292-1.938,1.076a2.118,2.118,0,0,0-1.057,1.684l-.071,5.083-.5,2.891.863,2.988v1.759l-.12,6.226-.781,2.11-.045.657.747,1.61.243,5.673.3,1.867a2.824,2.824,0,0,1-.329,1.2,2.334,2.334,0,0,1-1.079,1.12l-.138.056-3.055.919a2.326,2.326,0,0,1-1.867,1.494,2.133,2.133,0,0,1-1.6-.893l-.22-.261v-.116l-.112-.093-.09-.276a2.118,2.118,0,0,0-.064-.205.919.919,0,0,0,1.012.538l-.146-.825-.956-.075v-.777l.12-.022.467-2.988-.116-4.31.4-1.7-.288-2.764.183-3.152.056-6.54a2.219,2.219,0,0,1,1.288-2.136h0a3.191,3.191,0,0,0-.7-.056h-.945l.138-10.54.668-.538-.224-.519-1.087-3.6-.9-1.494.747-1.7.956-1.468,1.572-.867,1.33-1.285a3.077,3.077,0,0,1,2.185-.874,2.615,2.615,0,0,1,1.6.571,2.174,2.174,0,0,1,.922,1.46v.108l.056,4.456a27.085,27.085,0,0,1,2.816-3.249c1.557-1.543,2.678-2.241,3.638-2.241a1.494,1.494,0,0,1,1.259.747,9.156,9.156,0,0,0,.87-.635l.064-.045a4.607,4.607,0,0,1,2.536-.979h.347l3.13.373,1.259-.515,4.041.65a5.7,5.7,0,0,1,3.212,1.595l.243-.03a3.328,3.328,0,0,1,2.936,1.89l.037.075.594,1.274.792,1.606a8.3,8.3,0,0,1,.71,4.176v2.771l.22,1.494-.967,1.516.224.814.523,1.236v2.275a3.2,3.2,0,0,1-.093.867l-.03.09-.594,1.494a2.639,2.639,0,0,0-.1.867l.833,1.333-.071,1.763-.116,3.78.65,1.979.06,4.717.243,5.6-.556,1.976Zm-28.5-2.7a1.3,1.3,0,0,1,.134.194,1.7,1.7,0,0,1,.1.205,3.731,3.731,0,0,0,.437-.747l.187-.374,1.188-.314,2.529-.777a.56.56,0,0,0,.179-.232,1.617,1.617,0,0,0,.135-.344l-.288-1.774-.228-5.356-.777-1.647V174.8l.067-.889.747-2.062.116-5.894v-1.475l-.907-3.13.556-3.242.063-5a4.022,4.022,0,0,1,1.983-3.141l1.752-.971,1.494-1.457,1.4-.373,3.414-.747.34.09a3.734,3.734,0,0,1,.967-.982l.269-.172,4.082.373,3.645-.276,2.14,1.632,1.035.1.224.19a2.11,2.11,0,0,1,.68,1.677v.22a10.564,10.564,0,0,1,1.449,3.268l.03.12-.056,2.842.784,1.016-.553,2.207v3.735l-.056,1.554.418,1.341-.71,9.55.056.258a4.039,4.039,0,0,1,.8.557,3.7,3.7,0,0,1,.792,1.423l.168.459-1.161,1.662-.09,1.494-.9,4.781v.116a5.536,5.536,0,0,0,.516,1.053l4.482-2.682.273-.975-.232-5.345-.06-4.459-.65-1.991V170.7l.168-4.784-.818-1.3v-.269a4.854,4.854,0,0,1,.254-1.845l.557-1.386a3.075,3.075,0,0,0,0-.329v-1.9l-.437-1.057-.467-1.67,1.042-1.636-.138-1.012v-2.85c0-2.372-.325-3.036-.426-3.186l-.067-.112-.825-1.677-.583-1.251c-.459-.769-.908-.908-1.229-.923l-1.038.179-.347-.422a3.78,3.78,0,0,0-2.439-1.348l-3.522-.568-1.221.5-3.556-.43h-.179a2.817,2.817,0,0,0-1.449.631,7.789,7.789,0,0,1-2.129,1.3l-.9.332-.3-.915a3.944,3.944,0,0,0-.149-.373,7.021,7.021,0,0,0-2.121,1.636,25.347,25.347,0,0,0-3.332,4.049l-.164.243-2.177.867-.317-2.883-.06-4.691a.649.649,0,0,0-.194-.2.747.747,0,0,0-.467-.19,1.24,1.24,0,0,0-.9.355l-1.494,1.453-1.382.747-.654,1.008-.258.6.523.863,1.143,3.772.747,1.669-1.12.885-.1,7.843a1.957,1.957,0,0,1,1.053.467,3.151,3.151,0,0,1,.706,1.98l.1.926-.926.1c-.56.06-.586.228-.586.545l-.06,6.615-.172,3.029.3,2.932-.422,1.763.12,4.235Zm28.624-.87Z"
              transform="translate(-773.927 -86.69)"/>
        <path class="b"
              d="M813.8,93.708a24.5,24.5,0,0,1-.482,4.43l-1.983-.153-.613.467.135,2.1a3.568,3.568,0,0,1,1.094,2.876,12.55,12.55,0,0,1-.411,4.108l-2.461,5.442-.889,2.331-1.849,3.19-1.845,2.876-.941.867-7.388,7.929-3.694,1.942a4.333,4.333,0,0,1-2.05.934,2.8,2.8,0,0,1-.96-.467,4.62,4.62,0,0,1-3.212,1.244l-2.189-.153h-4.329l-1.494-.624-5.6-.62-3.149-2.876-1.3.463.549.781-1.367-.314-1.3-.31-3.694-4.43-2.465-.545-2.67-2.644q-1.643-1.938-1.643-2.719a12.753,12.753,0,0,1,.747-3.851,24.381,24.381,0,0,1,1.778-4.157q1.3-2.566,3.01-2.954l.683,5.83a5.349,5.349,0,0,1,1.266,1.322,6.742,6.742,0,0,1,.512,2.177l1.094-.314.96,1.012.747,1.867,3.216,1.494,3.216,2.331,6.428,2.241c1.1,1.139,1.733,1.711,1.916,1.711q.683,0,.822-1.554l.683-.157,5.883.624,1.849-1.557,1.027.624,1.778-.624,1.983-1.165a5.6,5.6,0,0,0,2.461-2.487l1.371-3.033,1.64-2.876a29.381,29.381,0,0,0,.747-3.653q1.845,0,1.845-1.946l-.205-1.554-.067-1.942.747-1.4,1.445-7.238h.478l-.205-4.586-.956-4.276-.344-1.785-1.367-.157L799.3,84.3l-4.243-2.719-.956-1.711-1.375-1.318L791.7,79.4l-.273.777-6.432-.467L783.5,76.837l-1.094,2.409-1.094-.373-2.667-.934a27.379,27.379,0,0,1-4.176-1.591,7.507,7.507,0,0,1-2.394-1.9l.071-1.711L770.5,71.567a5.228,5.228,0,0,1-.822.31,15.057,15.057,0,0,1-2.189-3.305,31.794,31.794,0,0,1-1.161-4.781l.411-.157-.96-1.785-.134-2.487-.205-2.566v-.773l.616-3.19.545-1.789.616-2.409,1.494-1.867q1.091-1.322,1.094-4.512l.881-1.1,5.132-6.375,2.189-2.177,3.623-3.029,5.065-2.723,1.173-.624,1.233-.31,2.939-.542,1.438-.934,4.788.934,2.121-.157,1.3.855,2.327.934q2.461,1.008,2.461,2.566a3.783,3.783,0,0,1-.138,1.087,4.051,4.051,0,0,0-.956.62l-1.233,1.789a11,11,0,0,1-3.761,2.487l-1.027-.934L796.9,31.592l-1.367-.314-3.9-1.244-2.192.157-2.614.157L782.2,34.311l-3.29,2.723-2.241,2.876-1.12,2.021-1.983,5.909-1.845,2.1-.411,1.867,1.3,1.165a6.63,6.63,0,0,0-.205,1.711,11.549,11.549,0,0,0,.478,2.566L771.063,58.8l.478,1.789,1.027.62,1.707.467,1.867,2.566,3.9,2.876,1.027,1.554,3.283-.463,2.872.463.205,1.012,1.161-.31,1.643-.31a1.154,1.154,0,0,1,.684.153l2.461.934,1.3.467q.344,3.653,1.233,3.653a.4.4,0,0,1,.172-.116.493.493,0,0,1,.172-.041l2.118-2.241,2.532.31,1.778-.157q1.494,0,2.943,1.946l2.394,3.5a4.152,4.152,0,0,0,.444-.041,2.219,2.219,0,0,0,.512-.116h.138q.616,0,3.283,5.442l.747,1.554.2,2.1Z"
              transform="translate(-471.793 -14.692)"/>
        <path class="b"
              d="M784.636,133.075h-.067l-2.155-.153h-4.463l-1.554-.642-5.782-.624-1.606-1.472.276.4-5.348-1.236-3.69-4.426-2.413-.534-2.917-2.891c-1.307-1.546-1.867-2.54-1.867-3.324a13.562,13.562,0,0,1,.8-4.142,25.8,25.8,0,0,1,1.849-4.318c.979-1.931,2.2-3.089,3.619-3.414l1.016-.232.747,6.5a5.45,5.45,0,0,1,1.191,1.337,4.907,4.907,0,0,1,.463,1.453l.624-.179,1.468,1.55.68,1.688,3.036,1.416,3.1,2.241,6.514,2.282.153.161c.5.519.848.863,1.087,1.087,0-.1.034-.224.045-.373l.06-.68L781,124.2l5.643.6,2.054-1.733,1.221.747,1.277-.448,1.9-1.12a4.676,4.676,0,0,0,2.136-2.092l1.4-3.089,1.591-2.786a30.366,30.366,0,0,0,.695-3.429l.123-.784h.8c.616,0,.9-.142.911-.952l-.205-1.58-.075-2.2.807-1.494L802.836,96h.243l-.161-3.529-.937-4.194-.22-1.143-1.008-.116L797.1,83.352l-4.351-2.794-1-1.793-.669-.642-.183.153-.426,1.206-7.66-.557-.859-1.64-.657,1.449-4.56-1.61a27.461,27.461,0,0,1-4.28-1.643,8.422,8.422,0,0,1-2.689-2.144l-.224-.273.06-1.561-.814-.579-.373.138-.62.217-.437-.5c-.549-.676-1.008-1.285-1.378-1.834h0a9.174,9.174,0,0,1-.952-1.718,31.083,31.083,0,0,1-1.214-4.949l-.146-.769.149-.06-.553-1.031-.146-2.712-.205-2.614v-.956l.642-3.283.549-1.737.661-2.614,1.632-2.024c.411-.5.889-1.569.889-3.925v-.332l1.12-1.345,5.169-6.435,2.241-2.241,3.7-3.1,6.409-3.44,1.4-.355,2.76-.508,1.6-1.038,5.046.993,2.312-.172,1.494.979,2.241.9c2.024.829,3.048,1.983,3.048,3.432a4.815,4.815,0,0,1-.176,1.348l-.1.373-.329.187c-.422.239-.62.373-.71.426l-1.24,1.789a11.942,11.942,0,0,1-4.082,2.723l-.557.25-1.576-1.445-2.26-2.783-1.12-.258-3.735-1.191-2.009.142-2.3.138-4.426,3.75-3.216,2.667-2.148,2.738-1.016,1.867L772.8,46.623l-1.811,2.062-.243,1.1,1.33,1.2-.146.553a5.786,5.786,0,0,0-.176,1.472,10.3,10.3,0,0,0,.448,2.323l.153.575-1.867,1.554.228.852.594.373,1.9.519,1.953,2.715L779.1,64.8l.792,1.2,2.839-.4,3.653.59.134.672.273-.071,1.815-.325a2.155,2.155,0,0,1,1.12.25l2.372.9,1.845.661.052.594a12.635,12.635,0,0,0,.415,2.469l1.995-2.125,2.9.373,1.763-.153c1.311,0,2.555.784,3.694,2.323l2.1,3.07a1.021,1.021,0,0,0,.168-.045l.161-.06h.31c.747,0,1.337.288,4.108,5.976l.81,1.658.22,2.267.486,7.4a25.7,25.7,0,0,1-.5,4.6l-.153.825-2.394-.187.075,1.18a4.632,4.632,0,0,1,1.12,3.3c0,3.033-.28,4.019-.489,4.482l-2.454,5.423-.93,2.458-1.867,3.223-1.916,2.988-1.02.911-7.47,8.015-3.787,1.991a4.841,4.841,0,0,1-2.532,1.064,1.867,1.867,0,0,1-.87-.269A5.543,5.543,0,0,1,784.636,133.075Zm-6.316-2.021h4.191l2.155.153a3.66,3.66,0,0,0,2.555-1l.523-.474.6.373c.3.183.467.273.553.314a4.728,4.728,0,0,0,1.442-.747l.09-.056,3.552-1.867,7.343-7.877.863-.769,1.767-2.749,1.8-3.1.885-2.316,2.465-5.442a11.615,11.615,0,0,0,.325-3.735,2.684,2.684,0,0,0-.766-2.166l-.3-.258-.2-2.988,1.3-.986,1.494.116a22.238,22.238,0,0,0,.321-3.4L810.8,84.8l-.187-1.9-.68-1.4a31.261,31.261,0,0,0-2.674-4.855c-.093.019-.2.037-.3.049a4.852,4.852,0,0,1-.56.049H805.9l-2.674-3.907c-.747-.993-1.457-1.52-2.133-1.535l-1.83.157-2.159-.3-2.073,2.2h-.187l-.134.157h-.426c-1.4,0-1.867-1.808-2.1-3.907l-.747-.269-2.652-1.02h-.1l-1.513.288-2.088.557-.276-1.348-2.1-.344-3.735.53-1.259-1.909-3.884-2.865-1.74-2.416-1.509-.411-1.46-.885-.747-2.723,1.867-1.557a10.139,10.139,0,0,1-.373-2.241,8.133,8.133,0,0,1,.112-1.378l-1.3-1.169.579-2.614,1.867-2.136,1.991-5.879,1.2-2.159L776.64,34.7,780,31.915l4.878-4.161,2.913-.176,2.357-.164,4.03,1.285,1.643.373,2.614,3.227.534.467a9.415,9.415,0,0,0,2.85-1.953l1.12-1.643a2.361,2.361,0,0,1,.967-.8,3.784,3.784,0,0,0,.03-.482c0-.769-1.023-1.352-1.867-1.7l-2.413-.979-1.12-.747-1.931.142-4.542-.885-1.274.829-3.1.575L786.6,25.4l-6.039,3.246-3.522,2.943L774.922,33.7l-5.774,7.2a7.56,7.56,0,0,1-1.307,4.769l-1.363,1.7-.579,2.241-.542,1.748-.59,3.051v.65l.2,2.529.127,2.3,1.363,2.543-.669.25a25.325,25.325,0,0,0,.96,3.843,11.368,11.368,0,0,0,1.528,2.405h1.4l.071.4,1.737,1.233-.075,1.849a6.6,6.6,0,0,0,1.867,1.4,26.644,26.644,0,0,0,4.026,1.543L780.3,76.4l1.531-3.361,2.151,4.108,5.2.373.123-.347,1.867-1.557,2.069,2,.911,1.625,4.131,2.648,3.328,3.339,1.726.2.471,2.461.975,4.411.25,5.561h-.68l-1.315,6.615-.7,1.3.06,1.643.205,1.632a2.585,2.585,0,0,1-1.972,2.79,25.569,25.569,0,0,1-.669,3.089l-.03.1-1.67,2.924-1.352,2.988a6.569,6.569,0,0,1-2.865,2.921l-2.125,1.229-2.192.769-.837-.5-1.64,1.378-6.039-.639c-.3,1.378-1.038,1.692-1.647,1.692-.452,0-.829-.179-2.431-1.838l-6.349-2.241-3.253-2.357-3.47-1.595-.822-2.047-.448-.471-1.6.456-.134-1.079a5.767,5.767,0,0,0-.4-1.834,4.28,4.28,0,0,0-1.042-1.057l-.291-.239-.575-4.885a6.214,6.214,0,0,0-1.4,1.946,23.838,23.838,0,0,0-1.7,4.041,12.026,12.026,0,0,0-.706,3.559c0,.041.09.534,1.4,2.084l2.446,2.424,2.51.556,3.7,4.437.441.1,2.678-.96,3.335,3.051,5.442.605ZM788.972,130.453Z"
              transform="translate(-470.195 -13.013)"/>
        <path class="b"
              d="M195.234,178.6a1.786,1.786,0,0,1-.06.508l-.452,2.585v.149a.717.717,0,0,0,.06.258l-1.774,2.693-1,.374-1.595,1.322-.65.2-1.834,1.169h-.176l-2.614-.1a4.019,4.019,0,0,0-1.89.713l-2.129,1.472-3.249.306-3.249-.306-.71-.747-2.424-.407-2.715-.915-3.735-1.068-1.774-1.867-1.595-2.032.53-1.782a3.38,3.38,0,0,1-1.494.407h-.3l-.769-1.068-.979-2.237-.538-.908-.3-2.9.373-1.472-.373-.814L157,170.964l.534-2.614-.239-4.68,1.494-3.051,1.714-4.482,2.3-2.39,4.075-4.882,1.184-1.068,1.595-1.423.71-.306,1.711-1.576,5.262-2.084,1.24-.407a.261.261,0,0,1,.116.026.418.418,0,0,1,.12.075l2.069,1.12,2.065-.713,3.959.814,3.309-.609a6.679,6.679,0,0,1,1.36.609,5.511,5.511,0,0,1-.71,2.163,5.389,5.389,0,0,1-1.595,1.2l-.116,1.12-1.666,1.3-1.184.71h-.179l-1.064-.2-1.419.2-6.263-1.221a3.552,3.552,0,0,0-.945-.1,2.338,2.338,0,0,0-.825.1l-3.429.814h-1.064q-1.419.31-2.775,2.7l-1.714.747-.769,2.084-1.416.306a1.868,1.868,0,0,1,.176.713l-1.647,4.082-.176,1.782.056,3.1a28.6,28.6,0,0,0,.3,3.712,11.951,11.951,0,0,0,.885,2.951l-.374,1.169a3.7,3.7,0,0,0-.415,1.12,1.77,1.77,0,0,0,.235.747c.829.273,1.221.407,1.184.407a7.877,7.877,0,0,1,1.24,1.867l1.12,1.867q.056.209.146.459c.06.172.149.373.265.661h.889l.53.867,2.659,2.387,1.18,1.221,1.3.508,1.18.56,1.83.1,4.728.613a.635.635,0,0,0,.179.1,8.1,8.1,0,0,0,2.895-1.475l.766.374,2.79-2.417a4.594,4.594,0,0,0,2.185-1.12,22.433,22.433,0,0,0,2.839-3.253c.355-.542.687-.814,1-.814a.713.713,0,0,1,.59.306A1.2,1.2,0,0,1,195.234,178.6Z"
              transform="translate(-96.764 -88.344)"/>
        <path class="b"
              d="M176.241,189.645l-3.69-.347-.747-.788-2.241-.392-2.7-.908-3.948-1.12-2.006-2.133-1.894-2.416.19-.635h-.874l-1.12-1.61-.986-2.148-.613-1.05-.329-3.261.317-1.322-.19-.441-1-1.423L155,166.78l-.243-4.8,1.565-3.231,1.767-4.616,2.413-2.5,4.149-4.949,2.895-2.614.7-.3,1.722-1.584,5.475-2.17,1.382-.452h.149a1.27,1.27,0,0,1,.478.1,1.3,1.3,0,0,1,.265.153l1.643.889,1.923-.665,4.03.829,3.361-.62.22.071a8.026,8.026,0,0,1,1.546.691l.571.329-.12.65a6.052,6.052,0,0,1-.889,2.562,5.337,5.337,0,0,1-1.453,1.2l-.112,1.046-2.058,1.576-1.4.844h-.613l-.911-.176-1.419.205-6.521-1.3a2.544,2.544,0,0,0-.691-.067,2.24,2.24,0,0,0-.482.034l-.131.045-3.518.852h-1.057c-.467.138-1.184.646-2.08,2.222l-.149.269-1.636.747-.81,2.2-1,.217v.179l-1.673,4.108-.157,1.591.056,3.044a28.314,28.314,0,0,0,.284,3.586,11.153,11.153,0,0,0,.822,2.719l.138.317-.508,1.632a6.25,6.25,0,0,0-.31.747l.486.164a1.957,1.957,0,0,1,.594.291h0a7.407,7.407,0,0,1,1.442,2.125l1.176,1.972.034.116c.034.12.078.254.131.407a.135.135,0,0,0,0,.034h.781l.747,1.2,2.614,2.346,1.038,1.072,1.173.459,1.016.482,1.714.1,4.975.642a13.235,13.235,0,0,0,2.192-1.259l.437-.284.687.317,2.514-2.211.258-.045a3.757,3.757,0,0,0,1.74-.908,21.572,21.572,0,0,0,2.682-3.085,2.309,2.309,0,0,1,1.77-1.21,1.643,1.643,0,0,1,1.326.669,2.114,2.114,0,0,1,.433,1.333,2.752,2.752,0,0,1-.082.713l-.448,2.469.164.418-.261.422-1.942,2.958-1.147.4-1.606,1.333-.71.224-1.957,1.247h-.448l-2.637-.1a3.222,3.222,0,0,0-1.348.564l-2.3,1.595Zm-2.809-2.14,2.809.265,2.917-.273,1.98-1.371a4.825,4.825,0,0,1,2.372-.844l2.51.1,1.7-1.087.594-.183L189.9,182.8l.863-.306,1.389-2.114V180l.493-2.685a.83.83,0,0,0,.022-.157,1.744,1.744,0,0,0-.116.164l-.037.052a22.94,22.94,0,0,1-2.988,3.4,5.7,5.7,0,0,1-2.36,1.274l-3.025,2.682-.852-.4c-1.845,1.173-2.521,1.345-2.969,1.345h-.19l-.172-.071-.134-.064-4.482-.579-1.979-.112-1.318-.624-1.457-.571-1.315-1.352-2.734-2.461-.325-.527h-.975l-.246-.56c-.127-.3-.224-.534-.291-.728-.049-.138-.09-.269-.127-.373l-1.083-1.815a10.369,10.369,0,0,0-.945-1.531l-.949-.317-.373-.116-.176-.34a3.263,3.263,0,0,1-.291-.781l-.205-.176h.172v-.235a3.55,3.55,0,0,1,.474-1.457l.235-.781a12.752,12.752,0,0,1-.814-2.853,29.365,29.365,0,0,1-.306-3.836l-.063-3.163.2-1.972,1.606-3.989a1.448,1.448,0,0,0-.078-.213l-.4-.908-1.9,1.968-1.681,4.381-1.374,2.839.232,4.557-.474,2.316.65.915.515,1.191-.373,1.625.258,2.54.471.818.967,2.106.43.594a3.025,3.025,0,0,0,.889-.3l1.92-.945-1,3.361,1.27,1.621,1.569,1.666,3.515,1.008,2.648.893,2.663.448Zm-7.507-39.493L161.745,153l1.8-.373.728-1.972,1.8-.8c1.008-1.684,2.069-2.614,3.238-2.876l.1-.022h1.053l3.261-.773a3.294,3.294,0,0,1,1.1-.142,4.483,4.483,0,0,1,1.162.127l6.073,1.184,1.416-.205,1,.194.874-.527,1.292-1,.127-1.2.422-.239a4.392,4.392,0,0,0,1.315-.952,3.178,3.178,0,0,0,.373-1.083c-.127-.056-.25-.108-.373-.153l-3.249.6-3.869-.822-2.215.747-2.282-1.236-.859.284-5.072,2.009-1.7,1.569-.717.31Z"
              transform="translate(-95.142 -86.815)"/>
        <path class="b"
              d="M284.134,92.741l-.116,2.7.056,2.084a1.621,1.621,0,0,1-.59,1.274l.235,1.221-.885.2-2.719,2.084-1.061.205-1.244.964a1.6,1.6,0,0,0-.3.026l-.3.078c-.512,0-.766-.205-.766-.613v-1.27l-.239-2.289.534-5.543.235-7.07a11.577,11.577,0,0,1,.885-4.269l-.471-1.584a8.841,8.841,0,0,1-.71-1.83,8.7,8.7,0,0,1,1-2.951,3.485,3.485,0,0,0,.415-1.677q0-.713-1.244-1.322l.179-.863-.355-.205V70.567l.71-3.559V58.265l.825-4.071a2.656,2.656,0,0,0-1-1.778v-2.39l-.176-9.154a10.417,10.417,0,0,1,1.064-3.459l.65-1.322q-1.539-.863-1.539-1.576,0,.2.235-1.983l-.84-.915V29.633l-.176-2.39v-.459l.706-2.592-.706-3.612.176-1.782-.825-5.95v-.814l.3-1.677.3-2.084,3.664-2.491L281.7,4.205,282.419,4l.545,1.12.116,2.185.3,1.494.116.863v1.221l-.3,3.765v.306l.12,1.778a3.519,3.519,0,0,1-.179,1.322L282.2,20.7l-.176,1.02a1.543,1.543,0,0,1,1.061.329,2.681,2.681,0,0,1,.239,1.449v1.12a1.961,1.961,0,0,1-1,1.677V27.53l-.06,1.02v.407l.71,1.494-.3,9.711v6.969l-1.12,2.693.635,3.851-.885,2.491a3.324,3.324,0,0,0,.71,1.169l.71.919.351,16.475-1.061,1.423a11.832,11.832,0,0,1,.176,2.088,13.12,13.12,0,0,1-.415,3.361l.415,1.12h1.12v1.867Z"
              transform="translate(-171.187 -1.886)"/>
        <path class="b"
              d="M275.8,102.631h-.134a1.521,1.521,0,0,1-1.7-1.546V99.863l-.243-2.334.538-5.6.235-7.04a13.138,13.138,0,0,1,.829-4.3l-.373-1.191a5.959,5.959,0,0,1-.766-2.159,8.416,8.416,0,0,1,1.094-3.361l.022-.049a2.558,2.558,0,0,0,.3-1.229,2.241,2.241,0,0,0-.721-.489l-.646-.317.187-.908-.239-.138L274.2,68.5l.691-3.47V56.277l.822-4.041A2.077,2.077,0,0,0,275,51.2l-.288-.276V48.135L274.537,39a11.1,11.1,0,0,1,1.139-3.851l.019-.037.28-.568a3.485,3.485,0,0,1-.993-1h-.265v-.9h.852l-.829-.172c0-.063.049-.347.176-1.494l-.788-.87V27.787l-.176-2.424V24.78l.687-2.491-.71-3.544.179-1.808-.818-5.976V9.986l.3-1.677.351-2.465,3.94-2.682,1.767-1.681L281.357,1l.952,2,.123,2.3.291,1.464.127.99v1.3l-.291,3.963.12,1.811a4.4,4.4,0,0,1-.243,1.662l-.915,2.581a1.651,1.651,0,0,1,.7.467,3.093,3.093,0,0,1,.459,2.054v1.12a2.771,2.771,0,0,1-1,2.14v.863l-.056,1.158.717,1.494-.3,9.942v7.134l-1.091,2.614.642,3.839-.848,2.383a4.481,4.481,0,0,0,.43.6l.919,1.184.374,17.106-1.02,1.363a12.668,12.668,0,0,1,.127,1.845,14.356,14.356,0,0,1-.373,3.3l.086.239h1.408v2.768l.829,8.157-.12,2.73.056,2.05a2.566,2.566,0,0,1-.515,1.587l.317,1.64-1.569.373-2.73,2.1-1.061.2-1.318,1.023h-.321a.373.373,0,0,0-.1,0,2.139,2.139,0,0,0-.232.06Zm-.2-5.109.235,2.293v.878h.075l1.2-.93,1.064-.2,2.7-2.077.205-.045-.168-.867.411-.373a.683.683,0,0,0,.265-.564l-.06-2.092.12-2.659-.825-8.165v-.949h-.84l-.747-2.006.075-.284a12.344,12.344,0,0,0,.373-3.119,10.567,10.567,0,0,0-.161-1.916l-.075-.4,1.12-1.494L280.218,56.7l-.519-.672a4.064,4.064,0,0,1-.874-1.494l-.071-.276.9-2.532L279,47.836l1.154-2.771V38.278l.288-9.513-.7-1.46v-.676l.06-.99V23.891l.418-.276c.519-.34.586-.657.586-.9V21.6a5.128,5.128,0,0,0-.049-.8,2.965,2.965,0,0,0-.374-.045l-1.042-.063.4-2.2.967-2.7a2.573,2.573,0,0,0,.1-.919l-.12-1.808v-.373l.291-3.735V7.827l-.1-.773-.3-1.572-.108-2.006-.056-.112-1.393,1.311L275.7,6.916l-.239,1.677-.284,1.628v.669l.833,6-.176,1.752.713,3.705L275.8,25.03v.3l.176,2.428v1.632l.867.96-.045.418c-.071.669-.127,1.173-.168,1.494a1.986,1.986,0,0,1-.049.347,3.111,3.111,0,0,0,1.046.788l.788.437-1.031,2.1a9.228,9.228,0,0,0-.975,3.066l.176,9.136v2.028a3.2,3.2,0,0,1,1,2.159v.093l-.825,4.071V65.24l-.71,3.559v.893l.471.273-.179.867a2.188,2.188,0,0,1,1.12,1.793,4.418,4.418,0,0,1-.515,2.1,8.717,8.717,0,0,0-.9,2.465,13.652,13.652,0,0,0,.624,1.513l.041.116.575,1.912-.146.321a10.6,10.6,0,0,0-.8,3.925l-.239,7.115ZM276.054,77.125ZM280.726,20.653Z"
              transform="translate(-169.621 -0.006)"/>
        <path class="b"
              d="M331.779,96.93a14.618,14.618,0,0,0-.885,3.966l-.235,5.035-.769,1.729a.746.746,0,0,1-.03.205,2.4,2.4,0,0,1-.09.254q0,.661,1,1.423l-.116,1.576v9.868l-.179,7.933.59,3.361v1.729l.12,3.459q-.179.747-2.54,2.988l-2.069,1.983a1.412,1.412,0,0,1-1.18.661,1.315,1.315,0,0,1-.949-.407,1.218,1.218,0,0,1-.411-.863,9.267,9.267,0,0,1,.65-3.1l.3-1.475-.355-.508.59-8.545.235-.863,1.064-.205v-1.625a9.711,9.711,0,0,0-.205-2.342,7.885,7.885,0,0,0-1.035-2.032l.12-1.681v-.3l-.12-.867a7.981,7.981,0,0,1,.53-2.988l-.59-.866.06-2.8a1.12,1.12,0,0,0,.59-.915l-.06-.863-1.18-.205v-1.524l.06-1.374v-2.084a6.49,6.49,0,0,0-.239-2.036,4.108,4.108,0,0,0-1-1.423,5.849,5.849,0,0,1,2.42-3.1l3.9-2.8A2.911,2.911,0,0,1,331.779,96.93ZM334.2,69.983a2.023,2.023,0,0,1-.415,1.494l-3.014,2.693-1.18,1.453-2.129,1.83q-2.185,1.983-2.614,1.983c-.157,0-.306-.108-.441-.329a1.244,1.244,0,0,1-.209-.687,2.842,2.842,0,0,1,.474-1.778l4.209-4.986,2.241-3.761a2.009,2.009,0,0,1,1.12-.306,1.755,1.755,0,0,1,1.359.687A2.521,2.521,0,0,1,334.2,69.983Z"
              transform="translate(-201.047 -41.724)"/>
        <path class="b"
              d="M323.608,142.477a2.241,2.241,0,0,1-1.6-.676,2.118,2.118,0,0,1-.691-1.528,10.144,10.144,0,0,1,.68-3.361l.205-1.012-.317-.452.646-9.057.374-1.423.878-.168v-.855a8.712,8.712,0,0,0-.172-2.1,6.883,6.883,0,0,0-.919-1.77l-.168-.261.138-2.166-.12-.93a9.226,9.226,0,0,1,.426-2.868l-.493-.717.078-3.574.392-.269a.7.7,0,0,0,.183-.164v-.052l-1.233-.213v-2.349l.06-1.352V103.1a5.55,5.55,0,0,0-.183-1.722,3.148,3.148,0,0,0-.784-1.076l-.4-.392.161-.534a6.8,6.8,0,0,1,2.783-3.6l4.191-3.007.373.049a3.831,3.831,0,0,1,2.685,2.073l.228.373-.146.422a13.866,13.866,0,0,0-.833,3.713l-.243,5.192-.777,1.748a1.61,1.61,0,0,1-.049.224.454.454,0,0,1-.019.067,2.189,2.189,0,0,0,.6.609l.407.306-.153,2.05v9.83l-.176,7.862.586,3.429v1.729l.123,3.548-.026.12c-.12.512-.549,1.326-2.809,3.466L325.49,141.5A2.3,2.3,0,0,1,323.608,142.477Zm.183-7.556.4.568-.411,2a8.325,8.325,0,0,0-.594,2.783.426.426,0,0,0,.134.2.374.374,0,0,0,.291.138c.082,0,.228,0,.422-.273l.112-.127,2.069-1.987a11.816,11.816,0,0,0,2.241-2.476l-.112-3.276V130.79l-.59-3.361.179-8.026V109.52l.082-1.12a2.5,2.5,0,0,1-.971-1.834v-.172l.064-.161.056-.157v-.168l.777-1.748.228-4.855a15.129,15.129,0,0,1,.8-3.81,2.241,2.241,0,0,0-.8-.747l-3.537,2.536a5.311,5.311,0,0,0-1.894,2.125,4.261,4.261,0,0,1,.81,1.326,7.323,7.323,0,0,1,.291,2.349v2.125l-.06,1.352v.721l1.12.194.112,1.658a1.867,1.867,0,0,1-.6,1.363l-.045,2.073.7,1.027-.187.463a7.146,7.146,0,0,0-.463,2.592l.12.926v.373l-.1,1.371a7.956,7.956,0,0,1,.982,2.032,10.458,10.458,0,0,1,.239,2.585v2.4l-1.251.239-.056.213ZM323.074,78.8a1.442,1.442,0,0,1-1.236-.769,2.207,2.207,0,0,1-.347-1.18,3.757,3.757,0,0,1,.669-2.353l4.187-4.964,2.316-3.888.183-.116a2.947,2.947,0,0,1,1.61-.444,2.674,2.674,0,0,1,2.065,1.012,3.444,3.444,0,0,1,.825,2.316A2.7,2.7,0,0,1,332.6,70.6l-2.943,2.614-1.244,1.554-2.129,1.83c-2.26,2.05-2.753,2.207-3.208,2.207Zm6.932-11.772-2.2,3.66-4.194,4.986a1.793,1.793,0,0,0-.254.956c.329-.25.855-.687,1.681-1.438l2.08-1.789,1.236-1.52,3.01-2.693a1.867,1.867,0,0,0,.1-.781,1.6,1.6,0,0,0-.373-1.094.822.822,0,0,0-.65-.373,1.214,1.214,0,0,0-.441.086Z"
              transform="translate(-199.255 -40.158)"/>
        <path class="b"
              d="M414.777,167.369l-.825,2.745-.415,1.221-1.184,1.867-.833,2-1.064,1.374-.769,1.221-.59.2-1.12-.306-.407.979a14.165,14.165,0,0,1-1.595,2.988,2.6,2.6,0,0,1-1.95.613h-.12l-.65-.1a5.378,5.378,0,0,1-1.15,2.921,8.774,8.774,0,0,1-3.283,2.215l-2.241.915-1.83.814-3.664.1-1,.2-1.064.866a3.56,3.56,0,0,0-1.3-.661l-2.614-.306-.945-.1.12-1.221-.949-.2-.766.609-.71.407H378.9l-.829-.306-.235,1.274.179,7.578-.594,3.455-.056,1.427h.65l.235,9.408-.945.2-.239.814.12,1.27.53,2.7-.3,1.169.594-.56.411.306.06,3.459.3,3.361.179,2.286q0,.967-1.244,1.12l-.3.713,1.494.456-.12,1.016.415,2.495.176,1.677-.471.967-1.064,1.016-.769,1.677-1.061.407-2.129,1.274-.71.1-1.535-.1-.06-1.867.06-1.677.3-4.273-.06-4.273a4.309,4.309,0,0,1,.209-1.068,2.581,2.581,0,0,1,.68-.915L372.352,222a7.862,7.862,0,0,0,.945-1.374,4.336,4.336,0,0,0,.235-1.371,2.144,2.144,0,0,1-.915-.613,2.491,2.491,0,0,1-.325-.915l.3-1.867-.12-1.371-.116-5.393-.179-4.067.415-4.829.12-1.322a3.447,3.447,0,0,0,.945-2.189,13.719,13.719,0,0,0-.415-2.7l-.885-.355-.422-1.748v-.747l.53-16.986.474-1.83-.176-1.867-.179-1.371-.71-.306V167.4l-.235-7.47v-.814l.3-2.106-.415-4.269a6.874,6.874,0,0,0-.205-2.215,3.873,3.873,0,0,0-1.21-1.143,4.447,4.447,0,0,1,.471-2.084l.829-.613,1.95-2.693,1.714-1.274,1.061-.609a3.672,3.672,0,0,1,1.894,1.322l-.179.967-.12,1.524.06.867.71.1,1.419-.967a34.926,34.926,0,0,1,3.694-2.084,5.976,5.976,0,0,1,2.45-.508,2.151,2.151,0,0,1,1.094.228,2.615,2.615,0,0,1,.747.747l.706-.661.415-.609,1.064-.306,1.655-.407,4.609.1,3.9-.1q.769,0,1.834,1.576c.116-.03.224-.067.325-.1a.818.818,0,0,1,.265-.049,4.294,4.294,0,0,1,1.416.747l3.014,1.867a2.129,2.129,0,0,1,1.064.934l.71,1.983a.7.7,0,0,0,.71.407,2.756,2.756,0,0,0,1.12-.306,10.831,10.831,0,0,1,2.069,2.988,23.118,23.118,0,0,1,1.24,4.553,27.936,27.936,0,0,1,.65,4.941v.2l-.235,1.677-.06,1.427Zm-5.259-4.575a3.729,3.729,0,0,1-1.83-2.29l-.65-2.375-2.129-3.866-.176-2.084-.594-.713-2.125.1-3.249-2.7-2.364-.306-2.189-.967-5.909.1h-.945l-1.12.2-3.361,1.169-1.655.407-1.359.713-.945.355q-.949.411-.945,2.988v.609a28,28,0,0,0-1.188,3.459.955.955,0,0,0,.06.407l.235.407.769.407-.12,2.54.12,5.8a6.954,6.954,0,0,1-.71,2.286,13.172,13.172,0,0,1,.889,4.273l-.179,4.68-.06,1.778,1.184.747,2.065,1.12,1.655,1.576.534-.863,1.064.56,3.544.3,2.954,1.475,3.361-.661,2.065.1,1.595-.81,1.655-.967,2.069-1.83,1.539-1.274,1.494-2.286,1.774-1.58A4.124,4.124,0,0,0,408,173.3l.176-1.983,1-2.491a1.991,1.991,0,0,0,.09-.179.374.374,0,0,0,.03-.127l-.194-4.045-.116-1.169Z"
              transform="translate(-230.273 -88.413)"/>
        <path class="b"
              d="M371.63,238.773l-2.48-.164-.086-2.76.06-1.707.3-4.265-.06-4.28v-.049a5.17,5.17,0,0,1,.261-1.307,2.894,2.894,0,0,1,.575-.919l-.407-3.253.243-.306a6.723,6.723,0,0,0,.822-1.169,2,2,0,0,0,.1-.456,2.192,2.192,0,0,1-.7-.631,3.3,3.3,0,0,1-.467-1.259l-.034-.161.3-1.931-.112-1.322-.116-5.389-.179-4.108.568-6.517.19-.228a2.555,2.555,0,0,0,.725-1.584,10.61,10.61,0,0,0-.288-2.013l-.874-.351-.553-2.3v-.874l.553-17.11.459-1.774-.161-1.718-.108-.814-.784-.34v-1.987l-.235-7.444v-.911l.288-2.039-.407-4.25a6.757,6.757,0,0,0-.123-1.826h0a3.814,3.814,0,0,0-.9-.769l-.43-.306.037-.523a4.914,4.914,0,0,1,.669-2.588l.078-.1.814-.6,1.95-2.693,1.92-1.419,1.337-.766.314.041a4.393,4.393,0,0,1,2.458,1.617l.314.34-.254,1.378-.086,1.12.747-.5a35.412,35.412,0,0,1,3.81-2.148,7,7,0,0,1,2.827-.586,3.018,3.018,0,0,1,1.572.373,2.511,2.511,0,0,1,.3.209l.5-.747,1.389-.4,1.808-.444,4.713.1,3.877-.1h0a3,3,0,0,1,2.241,1.438c.444-.063.8,0,2.155.908l2.947,1.838a2.988,2.988,0,0,1,1.453,1.337l.034.082.627,1.759a2.07,2.07,0,0,0,.635-.205l.59-.276.463.456a11.739,11.739,0,0,1,2.241,3.257,23.379,23.379,0,0,1,1.318,4.777,28.568,28.568,0,0,1,.639,5.106v.332l-.232,1.632-.052,1.27.437,2.308-.893,2.966-.459,1.352-1.2,1.909-.852,2.05-1.12,1.434-.919,1.46-1.173.4-.616-.164-.093.217a13.9,13.9,0,0,1-1.752,3.249,3.324,3.324,0,0,1-2.648.93,6.077,6.077,0,0,1-1.2,2.48,9.483,9.483,0,0,1-3.627,2.473l-2.267.926-1.976.878-3.768.1-.7.142-1.419,1.154-.579-.4a3.071,3.071,0,0,0-.893-.5l-2.585-.306-1.867-.2.1-.986-.209.153-.923.53h-3.3v.108l.176,7.571-.594,3.488-.019.392h.586l.28,11.093-1.158.246-.03.108.1,1.05.512,2.749.7.515.067,3.888.291,3.324.183,2.368a1.983,1.983,0,0,1-.6,1.434l.62.194-.179,1.647.4,2.416.205,1.946-.665,1.36-1.053,1.008-.855,1.867-1.356.515-2.207,1.345Zm-.665-1.916.594.041.426-.064,2.11-1.244.71-.273.684-1.494,1.072-1.023.28-.575-.146-1.386-.43-2.592.045-.373-1.718-.534.9-2.159.542-.067a.87.87,0,0,0,.418-.123v-.041l-.176-2.241-.3-3.414-.034-2.024-1.789,1.7,1.05-4.093-.5-2.581-.134-1.449.441-1.52.747-.157-.194-7.724h-.728l.112-2.517.575-3.361-.176-7.582.456-2.458,1.711.631h2.536l.433-.247,1.057-.844,2.192.474-.108,1.12h.026c1.468.168,2.338.273,2.614.306a2.988,2.988,0,0,1,1.12.437l.717-.583,1.389-.269,3.477-.1,1.666-.747,2.271-.926a7.853,7.853,0,0,0,2.91-1.938,4.385,4.385,0,0,0,.945-2.428l.063-.616-.25.209-2.207,1.931-1.7.99-1.815.926-2.2-.108-3.571.7-3.078-1.539-3.556-.306-.459-.239-.676,1.1-2.4-2.286-2.021-1.094-1.625-1.049.075-2.308.179-4.684a12.292,12.292,0,0,0-.833-3.925l-.123-.347.146-.336a6,6,0,0,0,.631-1.916l-.123-5.812.093-1.983-.482-.254-.374-.639a1.636,1.636,0,0,1-.187-.874c0-.232,0-.471,1.184-3.627v-.441c0-1.378.157-3.276,1.494-3.858h.041l.893-.336,1.408-.747,1.722-.426,3.466-1.191,1.289-.217h.945l6.1-.1,2.241.993,2.495.321,3.182,2.637,2.241-.1,1.076,1.3.187,2.177,2.11,3.776.691,2.54a2.817,2.817,0,0,0,1.416,1.7l1.016.639-1.068,1.02.075.769.179,4.108a1.3,1.3,0,0,1-.09.459,2.156,2.156,0,0,1-.12.25l-.93,2.334-.172,1.867a5.014,5.014,0,0,1-1.983,3.081l-1.651,1.472-1.494,2.3-1.02.844,1.259.19c.919,0,1.184-.224,1.244-.291a13.169,13.169,0,0,0,1.445-2.768l.728-1.7,1.632.444h0l.642-1.016.99-1.277.852-2.006,1.12-1.789.373-1.12.747-2.495-.374-2.069.075-1.621.224-1.613v-.146a27.33,27.33,0,0,0-.631-4.777,22.072,22.072,0,0,0-1.173-4.34,10.458,10.458,0,0,0-1.472-2.3,1.855,1.855,0,0,1-2.435-.829l-.022-.056-.683-1.894a1.438,1.438,0,0,0-.616-.452l-.082-.045L402,143.659a8.381,8.381,0,0,0-.964-.594l-.3.09-.65.183-.374-.56c-.657-.975-1.012-1.12-1.072-1.162l-3.884.1h-.022l-4.482-.1-1.531.373-.706.2-.28.418-1.576,1.468-.613-.881a1.561,1.561,0,0,0-.452-.471,1.3,1.3,0,0,0-.616-.1,5.068,5.068,0,0,0-2.077.43,34.277,34.277,0,0,0-3.559,2.013l-1.7,1.158-1.815-.261-.116-1.684.134-1.688.093-.5a3.661,3.661,0,0,0-.781-.613l-.657.373-1.554,1.154-1.953,2.693-.788.586a4.053,4.053,0,0,0-.205,1.008,3.589,3.589,0,0,1,1.076,1.176,6.128,6.128,0,0,1,.3,2.573l.411,4.31-.3,2.129v.747l.235,7.444v.788l.635.273.243,1.9.2,2.077-.489,1.89-.527,16.882v.624l.276,1.15.893.373.108.478a14.343,14.343,0,0,1,.437,2.9,4.183,4.183,0,0,1-.975,2.547l-.5,5.808.176,4.011.116,5.378.127,1.457-.288,1.826a1.225,1.225,0,0,0,.149.411h0a2.241,2.241,0,0,0,.515.28l.605.261-.041.654a5.2,5.2,0,0,1-.314,1.688,6.652,6.652,0,0,1-.825,1.27l.422,3.388-.34.325a1.651,1.651,0,0,0-.444.557,3.229,3.229,0,0,0-.153.788l.06,4.262-.3,4.31-.056,1.613Zm12-56.08,3.537.3,2.827,1.416,3.167-.624,1.935.093,1.352-.687,1.55-.908,2-1.767,1.445-1.206,1.468-2.275,1.867-1.658a3.349,3.349,0,0,0,1.345-1.9l.187-2.1,1.1-2.712-.179-3.862-.161-1.595.071-.067a4.146,4.146,0,0,1-1.3-2.148l-.616-2.263-2.17-3.94-.153-2-.1-.127-2.024.1-3.32-2.753-2.241-.291-2.121-.937-6.581.1-.971.176-3.38,1.169-1.546.373-1.363.706-.908.34c-.03.03-.374.373-.374,2.144v.777l-.06.161c-.889,2.364-1.079,3.014-1.12,3.186l.034.056,1.053.56-.142,3.1.116,5.767a6.666,6.666,0,0,1-.642,2.342,13.535,13.535,0,0,1,.822,4.235l-.22,5.976.706.456L380,179.656l.908.867.374-.624Zm-6.839-24.818Zm-.067-.067ZM400.938,142.991Z"
              transform="translate(-228.688 -86.765)"/>
        <path class="b"
              d="M534.2,181.313a4.355,4.355,0,0,1-.355,1.27l-.71,1.221-.59,1.378h-.53a6.876,6.876,0,0,1-1.27,2.185,2.073,2.073,0,0,1-1.494.609l-.825-.1-2.9-.71-4.43.2-3.309-1.475-4.019.867-2.719-.306-1.669.6a5.975,5.975,0,0,1-2.065.306h-.71l-3.014-.1-1.359.1-3.249.306q-1.36,0-1.359-1.576a1.434,1.434,0,0,1,.179-.814l2.36-3.1,3.253-5.643,2.48-2.9.825-2.088a3.8,3.8,0,0,0,.829.205,1.934,1.934,0,0,0,1.18-.747,4.6,4.6,0,0,0,.829-1.528,2.211,2.211,0,0,0-.415-1.068l5.494-9.154c1.027,0,1.617-.336,1.774-1.016l.53-2.443,2.069-3.2,1.834-3.97.65-1.12-2.3-1.068-6.559.2-4.964-.609-2.614.205H503.4l-1,.1-1.953.609c-.392,0-.59-.336-.59-1.016,0-.613.138-.967.415-1.068l1.595-1.322a8.964,8.964,0,0,0,1.95-2.85.441.441,0,0,1,.3-.1l2.719.661.71-.661c.945.986,1.673,1.494,2.185,1.494a1.12,1.12,0,0,0,.534-.1l1.12-.306,1.12.205,1.595-.1,3.959,1.274,4.374-.766,1.655.205,1.595-.306,1.774-.2,1.655-.407c.627.1,1.1.829,1.416,2.185l-.59.814-1.89,2.951-1.184,2.084a3.141,3.141,0,0,1-.62.993,1.528,1.528,0,0,1-.975.228l-.747-.1a7.277,7.277,0,0,1-.09,1.094,3.7,3.7,0,0,1-.265.964,7.439,7.439,0,0,1-.65,1.042q-.474.661-1.244,1.681l-1.008,1.669a3.869,3.869,0,0,0-1.24.814v.863a1.259,1.259,0,0,1-.3.915l-1.535,2.088-1.539,2.592a7.394,7.394,0,0,0-1.535,2.543,1.787,1.787,0,0,0,.06.508c-.276.441-.493.781-.65,1.016s-.258.392-.3.459l-3.074,5.289-2.241,1.016a2.394,2.394,0,0,0-.415,1.374,9.938,9.938,0,0,0,.235,1.576l-1.655,2.988-.471,1.27h2.357l2.48-.1a3.975,3.975,0,0,1,1.89.814,4.052,4.052,0,0,1,1.3-.814l4.433.1,5.912-.661,3.134.863,1,.205.65-.205v-1.169l.747-.3a8.995,8.995,0,0,1,2.895-.814.717.717,0,0,1,.564.228A.993.993,0,0,1,534.2,181.313Z"
              transform="translate(-310.165 -87.454)"/>
        <path class="b"
              d="M527.695,186.749h-.1l-.937-.123-2.764-.68-4.519.209-3.231-1.442-3.862.818-2.652-.3-1.457.534a6.925,6.925,0,0,1-2.39.373h-.71l-2.988-.1-1.307.1-3.32.31a2.213,2.213,0,0,1-2.293-2.51,2.3,2.3,0,0,1,.344-1.348l.026-.034,2.327-3.055,3.32-5.733,2.379-2.779,1.091-2.749.825.261c.288.09.444.131.527.149a2.2,2.2,0,0,0,.474-.4,8.415,8.415,0,0,0,.609-1,2.358,2.358,0,0,0-.258-.508l-.3-.486,6.062-10.084h.527c.53,0,.818-.1.867-.3l.564-2.592,2.125-3.29L518.511,146l.138-.232-1.177-.545-6.409.2-4.941-.609-2.581.2h-1.606l-.863.086-1.994.624h-.146c-.254,0-1.524-.093-1.524-1.95a1.926,1.926,0,0,1,.844-1.867l1.494-1.233a8.12,8.12,0,0,0,1.718-2.54l.086-.179.149-.131a1.378,1.378,0,0,1,.9-.329h.112l2.338.568,1.016-.945.635.665c1.091,1.12,1.494,1.188,1.52,1.188h.108l.056-.034,1.442-.373,1.218.22,1.658-.1,3.91,1.255,4.28-.747,1.647.2,1.52-.288,1.714-.2,1.782-.437.187.03c1.565.254,2.028,2.241,2.181,2.9l.1.415-.825,1.12-1.867,2.906-1.15,2.032a3.734,3.734,0,0,1-.844,1.27,2.241,2.241,0,0,1-1.494.456.527.527,0,0,1-.026.2,4.57,4.57,0,0,1-.344,1.221,7.844,7.844,0,0,1-.747,1.191c-.314.437-.725.993-1.225,1.658l-1.147,1.886-.3.116a2.614,2.614,0,0,0-.65.374v.433a2.2,2.2,0,0,1-.508,1.513l-1.494,2.006-1.569,2.641a10.631,10.631,0,0,0-1.348,2.043.7.7,0,0,0,.022.183l.116.4-.22.373c-.284.448-.5.8-.665,1.038l-.265.4-3.223,5.554-2.241,1.016a1.494,1.494,0,0,0-.138.646,8.846,8.846,0,0,0,.217,1.389l.071.336-1.759,3.19h1.02l2.5-.1a3.825,3.825,0,0,1,1.841.62c.747-.519,1.042-.62,1.348-.62l4.392.1,6.024-.676,3.276.9.5.1v-.993l1.356-.542a9.644,9.644,0,0,1,3.238-.878,1.64,1.64,0,0,1,1.255.534,1.9,1.9,0,0,1,.448,1.315,4.758,4.758,0,0,1-.418,1.606l-.064.134-.676,1.147-.81,1.886H531.1a6.524,6.524,0,0,1-1.229,1.916A3.018,3.018,0,0,1,527.695,186.749Zm-.657-1.953.71.086a1.139,1.139,0,0,0,.8-.34,5.868,5.868,0,0,0,1.064-1.867l.239-.575h.542l.4-.911.672-1.154a4.578,4.578,0,0,0,.261-.837,9.711,9.711,0,0,0-2.375.747l-.183.075v1.221l-1.535.482-1.3-.269-2.958-.814-5.793.646-4.325-.138a9.014,9.014,0,0,0-.881.616l-.523.4-.556-.374a3.35,3.35,0,0,0-1.367-.661l-2.491.1H503.72l1-2.656,1.494-2.7a7.841,7.841,0,0,1-.19-1.423,3.313,3.313,0,0,1,.575-1.9l.149-.217,2.211-1,2.924-5.031c.037-.071.149-.239.321-.5.12-.176.269-.407.452-.695a2.862,2.862,0,0,1,0-.314c0-.5.284-1.2,1.692-3.063l1.561-2.614,1.617-2.177a.82.82,0,0,0,.034-.269V155.4l.291-.276a4.952,4.952,0,0,1,1.236-.867l.908-1.494c.5-.669.915-1.225,1.225-1.658a6.012,6.012,0,0,0,.564-.893,2.765,2.765,0,0,0,.19-.713,6.855,6.855,0,0,0,.078-.952v-1.068l1.759.235a1.659,1.659,0,0,0,.333-.034,3.849,3.849,0,0,0,.373-.646l.034-.067,1.206-2.129,1.923-2.988.332-.456a2.42,2.42,0,0,0-.482-1.016l-1.472.355-1.737.2-1.707.325-1.662-.205-4.463.781-4.008-1.289-1.535.1-1.027-.187-.829.228a2.14,2.14,0,0,1-.867.157,3.465,3.465,0,0,1-2.2-1.12l-.467.377-2.7-.657a9.244,9.244,0,0,1-1.9,2.614l-.03.026-1.651,1.371a1.364,1.364,0,0,0-.022.232l1.419-.441,1.2-.116h1.617l2.655-.209,4.986.613,6.723-.209,3.436,1.591-1.158,1.965-1.867,4.041-1.976,3.063-.5,2.275a2.224,2.224,0,0,1-2.136,1.722l-4.964,8.273a2.423,2.423,0,0,1,.269,1.046c0,.373-.157.825-.99,2.05l-.086.112a2.652,2.652,0,0,1-1.867,1.061,1.534,1.534,0,0,1-.265-.026l-.56,1.464-2.525,2.951-3.276,5.67-2.323,3.048a1.379,1.379,0,0,0-.026.3c0,.609.127.639.373.642l3.208-.3,1.427-.1,3.063.1h.68a5.162,5.162,0,0,0,1.744-.246l1.867-.687,2.786.314,4.168-.9,3.388,1.494,4.344-.2Z"
              transform="translate(-308.624 -85.287)"/>
        <path class="b"
              d="M66.761,122.843l-.631,3.343-1.027-.157a.9.9,0,0,0-.822.467l-.889,3.343-1.3,1.494-.411.781-1.707-.314-2.054,1.632h-.067l-2.327-1.165-.273-.153-5.337.31-1.494-.31-.545-1.244a24.652,24.652,0,0,1-3.216.93l-1.778-.153-1.165.31-.411-1.554h-.545l-.478.153-1.643,1.4-9.3.157L27.97,133.2q-1.576-1.711-2.394-1.711l-.478.157L22.7,132.733l-2.738-.934-8.34.448a16.748,16.748,0,0,1-3.488-1.867l.407-1.789L9.71,124.18l.205-4.2.478-3.806v-5.853l.273-2.241-.134-18.036.134-4.586L10.6,83.75l-.273-1.789,1.912-.157a15.44,15.44,0,0,0-.855-2.641,10.457,10.457,0,0,0-1.333-1.946L9.777,75.9l.273-5.752-.411-9.871.411-3.81.205-1.557-1.023-.467-.344-1.632-.205-5.053-.545-1.632L8,45.344,8.138,43.4l.34-.934,2.614,1.087-.747-1.087a2.581,2.581,0,0,1-.706-1.576,10.155,10.155,0,0,1,.138-1.322L9.03,39.1l-.889.467q-.209-3.81-.344-5.053t-.616-1.494L5.4,31.8l.411-1.632a4.534,4.534,0,0,1,1.572-1.4l.889-.467q2.323-1.785,3.559-1.789h.1c.022,0,.078.052.172.157l6.91,1.942,3.212.467,1.782.934A6.39,6.39,0,0,1,26.4,28.94c.179,0,.3.052.34.157l7.115,1.244,6.293-.624,2.45,1.158,1.438-.545V29.4A15.054,15.054,0,0,0,48.759,28a9.449,9.449,0,0,1,2.529-1.318l.96.31a10.361,10.361,0,0,1-.616,2.525,5.2,5.2,0,0,1-1.494,1.673,7.026,7.026,0,0,1-.373,1.942,5.853,5.853,0,0,1-1.333,1.554,7.44,7.44,0,0,1-4.108,1.867h-.478l-2.532-.31-2.118.467-4.31-.781-1.027-.153a3.659,3.659,0,0,0-2.614-1.4,3.689,3.689,0,0,1-3.627,1.867l-1.434-.157-.276-1.4-.859.467-1.367.934-6.5-.934-1.027,2.566.344.624v.62l.205,4.108-.359,6.077.138,2.241.138,1.711.956.5L24.007,54.6q.683,0,1.912,1.554l1.494-.467a4.43,4.43,0,0,1,1.916-.777H29.4l5.061.467,3.01.157h2.667a4.015,4.015,0,0,0,1.438-.235,4.146,4.146,0,0,0,1.3-.855L46.5,55.537l.822-.31,2.054-.781L53,54.293l3.9-.855A3.421,3.421,0,0,1,58.2,54.6l1.038-1.012c.639-.825,1.206-1.244,1.711-1.244l1.094.157,1.027-.157V54.76l-1.233,1.4-2.872,4.108c-.373.463-.71.7-1.027.7H57.73l-3.145-.7-4.037.232-2.241-.855-7.869.855-1.494-.232q-.474-1.557-1.162-1.557a.747.747,0,0,0-.549.157l-2.118,1.4-6.226-1.091-3.01,1.789L23.731,59.94l-1.778,1.789-5.124-.613L16.418,62.2l.205,4.108-.822,4.2.411,1.244.683,1.4-.683,3.361A19.272,19.272,0,0,1,17.1,79.7L16.9,82.267l.34,7.152v.157a8.71,8.71,0,0,1-1.023,3.186,10.263,10.263,0,0,1,1.229,4.2,3.5,3.5,0,0,1-.205,1.091l-1.229,4.43,1.367,3.966.549,14.846,1.434.467,6.435,3.649,2.114-.482a3.866,3.866,0,0,1,2.118,1.244q.96-1.4,1.371-1.4h.134l4.381,1.4,2.667-.467,2.241.777,5.677-.624,1.576.467,2.734.157.96.545-.276-1.169,1.094-.31,4.381-.153.956-.624,5.543-1.632c.134-.052.489-.194,1.057-.43a4.429,4.429,0,0,1,1.061-.347A3.489,3.489,0,0,1,66.761,122.843Z"
              transform="translate(-1.786 -15.995)"/>
        <path class="b"
              d="M26.087,132.873l-.586-.639a5.369,5.369,0,0,0-1.632-1.386l-.217.071-2.682,1.221-2.917-.993-8.217.456c-.332,0-.672,0-3.974-2l-.579-.347.564-2.446,1.143-4.366.209-4.172.471-3.735v-5.886l.265-2.192L7.8,88.479l.146-4.605-.063-1.61-.418-2.73,1.793-.142a9.558,9.558,0,0,0-.5-1.4,9.644,9.644,0,0,0-1.214-1.755L7.4,76.057,7.054,74.4l.276-5.83-.411-9.9.418-3.877.116-.893-.825-.373L6.169,51.28l-.2-4.945L5.43,44.7l-.157-.9.157-2.189.721-1.976L7.017,40a2.529,2.529,0,0,1-.1-.691,3.533,3.533,0,0,1,.037-.586l-1.46.766L5.418,38.04c-.134-2.5-.25-4.187-.34-5a2.3,2.3,0,0,0-.179-.784L2.55,30.611l.6-2.372.06-.1A5.25,5.25,0,0,1,5.1,26.394l.063-.037.818-.43C7.708,24.62,9,24,10.046,24h.1a.982.982,0,0,1,.657.258l6.618,1.867,3.313.489,1.457.747a5.035,5.035,0,0,1,2.424-.952,1.434,1.434,0,0,1,.777.217L32.116,27.8l6.42-.635,2.338,1.12.463-.176V27.029l.777-.134a14.42,14.42,0,0,0,4.4-1.281c2.155-1.341,2.637-1.449,2.988-1.449h.149l1.867.6-.12.784a11,11,0,0,1-.691,2.775,5.468,5.468,0,0,1-1.464,1.755,6.723,6.723,0,0,1-.411,1.845,6.42,6.42,0,0,1-1.554,1.867l-.071.06c-1.826,1.382-3.361,2.054-4.669,2.054h-.59l-2.375-.291-2.148.474-4.482-.81-1.322-.2-.235-.247A3.507,3.507,0,0,0,29.942,33.8,4.744,4.744,0,0,1,25.833,35.6h-.1l-2.1-.239-.161-.807-1.36.926-6.14-.878-.59,1.472.247.448v.837l.205,4.146L15.5,47.56l.134,2.2.09,1.158.355.172,6.237.982a3.371,3.371,0,0,1,2.144,1.408l.8-.25a4.973,4.973,0,0,1,2.3-.848h.157l5.042.467,2.966.153h2.644a3.212,3.212,0,0,0,1.12-.172,3.362,3.362,0,0,0,1-.672l.373-.373,3.828,1.15,2.719-1.031L51.1,51.75l4.108-.9.284.127a3.578,3.578,0,0,1,.979.665l.28-.273a3.25,3.25,0,0,1,2.409-1.557h.131l.96.134,1.965-.3v3.858l-1.43,1.625-2.872,4.108A2.263,2.263,0,0,1,56.15,60.3h-.306L52.721,59.6l-4.108.239-2.241-.848-7.754.863-2.2-.34-.176-.56a2.951,2.951,0,0,0-.373-.852L33.5,59.665,27.256,58.57l-3.141,1.867-1.976-.956L20.5,61.125l-4.855-.59-.082.22.224,4.056-.8,4.071.314.952.8,1.628-.7,3.4a18.7,18.7,0,0,1,.852,3.122v.1L16.048,80.7,16.388,88a8.4,8.4,0,0,1-.93,3.182,10.7,10.7,0,0,1,1.12,4.2,4.381,4.381,0,0,1-.243,1.36l-1.143,4.123,1.322,3.81.527,14.338.908.291,6.2,3.526,1.867-.411h.1a3.4,3.4,0,0,1,1.957.829c.579-.706,1.031-.986,1.531-.986h.28l4.3,1.374,2.678-.471,2.289.788,5.655-.605,1.651.489,2.222.127-.075-.321,2.058-.586,4.235-.149.852-.556,5.64-1.658,1-.407a3.92,3.92,0,0,1,1.412-.418,3.6,3.6,0,0,1,1.6.571l.609.321-.9,4.908-1.763-.265-.874,3.309-1.371,1.557-.687,1.3-1.968-.373-1.976,1.569h-.613l-2.614-1.307-5.184.3-2.1-.433-.4-.911a10.737,10.737,0,0,1-2.7.717h-.082l-1.613-.138-1.909.508-.426-1.61-1.64,1.393-9.337.157ZM54.2,129.847l1.811.908,1.946-1.546,1.453.265.142-.269,1.229-1.4.863-3.253.067-.108a1.808,1.808,0,0,1,1.625-.93H63.6l.321-1.752-.12-.049c-.1.034-.31.1-.7.265l-1.087.437-.063.022-5.408,1.591-1.061.691-4.523.161-.131.037.56,2.379-2.614-1.494-2.614-.149-1.494-.444-5.722.657-2.241-.769-2.656.467-4.31-1.378a6.722,6.722,0,0,0-.747.945l-.605.885-.8-.721a4.058,4.058,0,0,0-1.434-.993l-2.327.512-6.641-3.783-1.968-.639-.553-15.347-1.419-4.108,1.322-4.755a2.588,2.588,0,0,0,.157-.8,9.375,9.375,0,0,0-1.139-3.795l-.19-.4.19-.4a7.616,7.616,0,0,0,.934-2.79v-.138l-.344-7.19.19-2.521a18.552,18.552,0,0,0-.822-2.924l-.082-.239.672-3.283-.59-1.229-.486-1.494.844-4.325-.209-4.2.747-1.953,5.4.654,1.916-1.92,2.241,1.083,2.88-1.711,6.2,1.083,1.752-1.15a1.684,1.684,0,0,1,1.12-.373c1.038,0,1.584.952,1.867,1.655l.825.127,7.967-.867,2.282.863,3.966-.228,3.227.706a1.386,1.386,0,0,0,.325-.321l2.921-4.183,1-1.12v-.971h-.09l-1.12-.161c-.086.026-.4.164-.945.874l-.086.1-1.8,1.774-.639-.885a2.988,2.988,0,0,0-.687-.721l-3.7.818-3.473.149-3.029,1.147-3.455-1.046a4.482,4.482,0,0,1-1.184.687,5,5,0,0,1-1.767.3H35.649L32.6,54.712l-5.042-.459a3.739,3.739,0,0,0-1.434.646l-.1.056-2.241.691-.4-.5c-.777-.979-1.147-1.169-1.225-1.2h-.1l-6.57-1.031-1.561-.747-.179-2.241-.123-2.357.344-6.069-.205-4.108v-.373l-.441-.8,1.464-3.656,6.865.986,1.162-.784,2-1.05.373,1.953.7.078c1.86-.034,2.461-.781,2.76-1.378l.258-.523h.571A4.363,4.363,0,0,1,32.523,33.3l.713.108,4.153.747,2.092-.463,2.614.325h.422c.6,0,1.7-.288,3.507-1.647A4.64,4.64,0,0,0,47.1,31.152a6.3,6.3,0,0,0,.3-1.658l.041-.373.306-.247a4.228,4.228,0,0,0,1.24-1.337,6.48,6.48,0,0,0,.415-1.43,19.123,19.123,0,0,0-1.927,1.12h-.034A14.269,14.269,0,0,1,43.2,28.594v.8l-2.409.915L38.2,29.083l-6.163.609-7.657-1.341a10.6,10.6,0,0,0-1.673.878l-.452.276-2.106-1.12-3.175-.467L9.788,25.9a7.759,7.759,0,0,0-2.73,1.565l-.138.086L6.079,28a4.235,4.235,0,0,0-1.169.96l-.22.867,1.206.844a2.708,2.708,0,0,1,1.053,2.17c.078.728.164,1.9.265,3.656l.078-.041,1.726,1.072-.09.605a9.711,9.711,0,0,0-.142,1.176,1.714,1.714,0,0,0,.482.971l.037.052,2.57,3.713-4.613-1.92-.112,1.576.1.594.568,1.7L8.033,51.1l.228,1.094,1.225.564L9.191,55l-.4,3.735L9.2,68.58l-.273,5.677.205.982a10.761,10.761,0,0,1,1.3,1.946A16.434,16.434,0,0,1,11.361,80l.273,1.076-2.021.161.134.9.067,1.74-.138,4.62.138,18.036-.273,2.241v5.894l-.474,3.791-.209,4.262-1.188,4.523-.25,1.1a20.874,20.874,0,0,0,2.506,1.378l8.4-.471,2.555.874,2.155-.975.6-.209h.149a3.852,3.852,0,0,1,2.476,1.386l.952-.747,9.285-.157,1.528-1.3.8-.258h1.416l.373,1.345.418-.112,1.867.161c.172-.034.792-.187,2.939-.881l.8-.261.691,1.576.911.187,5.49-.317ZM29.871,124.1ZM22.166,53.935Z"
              transform="translate(0 -14.416)"/>
    </g>
</svg>